CO-LAB3/CO-LAB3/waveform.vcd
$version Generated by VerilatedVcd $end
$timescale 1s $end

 $scope module TOP $end
  $var wire  1 7! clk $end
  $var wire 32 9! r[0] [31:0] $end
  $var wire 32 C! r[10] [31:0] $end
  $var wire 32 D! r[11] [31:0] $end
  $var wire 32 E! r[12] [31:0] $end
  $var wire 32 F! r[13] [31:0] $end
  $var wire 32 G! r[14] [31:0] $end
  $var wire 32 H! r[15] [31:0] $end
  $var wire 32 I! r[16] [31:0] $end
  $var wire 32 J! r[17] [31:0] $end
  $var wire 32 K! r[18] [31:0] $end
  $var wire 32 L! r[19] [31:0] $end
  $var wire 32 :! r[1] [31:0] $end
  $var wire 32 M! r[20] [31:0] $end
  $var wire 32 N! r[21] [31:0] $end
  $var wire 32 O! r[22] [31:0] $end
  $var wire 32 P! r[23] [31:0] $end
  $var wire 32 Q! r[24] [31:0] $end
  $var wire 32 R! r[25] [31:0] $end
  $var wire 32 S! r[26] [31:0] $end
  $var wire 32 T! r[27] [31:0] $end
  $var wire 32 U! r[28] [31:0] $end
  $var wire 32 V! r[29] [31:0] $end
  $var wire 32 ;! r[2] [31:0] $end
  $var wire 32 W! r[30] [31:0] $end
  $var wire 32 X! r[31] [31:0] $end
  $var wire 32 <! r[3] [31:0] $end
  $var wire 32 =! r[4] [31:0] $end
  $var wire 32 >! r[5] [31:0] $end
  $var wire 32 ?! r[6] [31:0] $end
  $var wire 32 @! r[7] [31:0] $end
  $var wire 32 A! r[8] [31:0] $end
  $var wire 32 B! r[9] [31:0] $end
  $var wire  1 8! start $end
  $scope module Pipe_CPU $end
   $var wire  2 L ALUOp [1:0] $end
   $var wire  1 D ALUSrc $end
   $var wire  4 C ALU_Control [3:0] $end
   $var wire 32 M ALU_in2 [31:0] $end
   $var wire 32 N ALU_result [31:0] $end
   $var wire  1 P ALU_zero $end
   $var wire  1 I Branch $end
   $var wire 32 Y! EX_MEM_ALU_result [31:0] $end
   $var wire  1 < EX_MEM_Branch $end
   $var wire  1 Z! EX_MEM_MemRead $end
   $var wire  1 ; EX_MEM_MemToReg $end
   $var wire  1 9 EX_MEM_MemWrite $end
   $var wire  1 : EX_MEM_RegWrite $end
   $var wire  1 8 EX_MEM_Zero $end
   $var wire 32 6 EX_MEM_pc_branch [31:0] $end
   $var wire  5 7 EX_MEM_rd [4:0] $end
   $var wire 32 5 EX_MEM_readdata2 [31:0] $end
   $var wire  1 - ID_EX_ALUSrc $end
   $var wire  4 , ID_EX_ALU_Control [3:0] $end
   $var wire  1 2 ID_EX_Branch $end
   $var wire  1 4 ID_EX_Jalr $end
   $var wire  1 3 ID_EX_Jump $end
   $var wire  1 . ID_EX_MemRead $end
   $var wire  1 1 ID_EX_MemToReg $end
   $var wire  1 / ID_EX_MemWrite $end
   $var wire  1 0 ID_EX_RegWrite $end
   $var wire 32 ( ID_EX_imm [31:0] $end
   $var wire 32 % ID_EX_pc_plus_4 [31:0] $end
   $var wire  5 + ID_EX_rd [4:0] $end
   $var wire 32 & ID_EX_readdata1 [31:0] $end
   $var wire 32 ' ID_EX_readdata2 [31:0] $end
   $var wire  5 ) ID_EX_rs1 [4:0] $end
   $var wire  5 * ID_EX_rs2 [4:0] $end
   $var wire 32 $ IF_ID_inst [31:0] $end
   $var wire 32 # IF_ID_pc_plus_4 [31:0] $end
   $var wire  1 K Jalr $end
   $var wire  1 J Jump $end
   $var wire 32 = MEM_WB_ALU_result [31:0] $end
   $var wire  1 A MEM_WB_MemToReg $end
   $var wire  1 @ MEM_WB_RegWrite $end
   $var wire 32 > MEM_WB_mem_data [31:0] $end
   $var wire  5 ? MEM_WB_rd [4:0] $end
   $var wire  1 E MemRead $end
   $var wire  1 H MemToReg $end
   $var wire  1 F MemWrite $end
   $var wire  1 G RegWrite $end
   $var wire  1 7! clk $end
   $var wire 32 B imm [31:0] $end
   $var wire 32 4! inst [31:0] $end
   $var wire 32 \! mem_data [31:0] $end
   $var wire 32 O pc_branch [31:0] $end
   $var wire 32 [! pc_in [31:0] $end
   $var wire 32 2! pc_out [31:0] $end
   $var wire 32 3! pc_plus_4 [31:0] $end
   $var wire 32 9! r[0] [31:0] $end
   $var wire 32 C! r[10] [31:0] $end
   $var wire 32 D! r[11] [31:0] $end
   $var wire 32 E! r[12] [31:0] $end
   $var wire 32 F! r[13] [31:0] $end
   $var wire 32 G! r[14] [31:0] $end
   $var wire 32 H! r[15] [31:0] $end
   $var wire 32 I! r[16] [31:0] $end
   $var wire 32 J! r[17] [31:0] $end
   $var wire 32 K! r[18] [31:0] $end
   $var wire 32 L! r[19] [31:0] $end
   $var wire 32 :! r[1] [31:0] $end
   $var wire 32 M! r[20] [31:0] $end
   $var wire 32 N! r[21] [31:0] $end
   $var wire 32 O! r[22] [31:0] $end
   $var wire 32 P! r[23] [31:0] $end
   $var wire 32 Q! r[24] [31:0] $end
   $var wire 32 R! r[25] [31:0] $end
   $var wire 32 S! r[26] [31:0] $end
   $var wire 32 T! r[27] [31:0] $end
   $var wire 32 U! r[28] [31:0] $end
   $var wire 32 V! r[29] [31:0] $end
   $var wire 32 ;! r[2] [31:0] $end
   $var wire 32 W! r[30] [31:0] $end
   $var wire 32 X! r[31] [31:0] $end
   $var wire 32 <! r[3] [31:0] $end
   $var wire 32 =! r[4] [31:0] $end
   $var wire 32 >! r[5] [31:0] $end
   $var wire 32 ?! r[6] [31:0] $end
   $var wire 32 @! r[7] [31:0] $end
   $var wire 32 A! r[8] [31:0] $end
   $var wire 32 B! r[9] [31:0] $end
   $var wire 32 i readdata1 [31:0] $end
   $var wire 32 j readdata2 [31:0] $end
   $var wire  1 8! start $end
   $var wire 32 Q write_data [31:0] $end
   $scope module EX_MEM $end
    $var wire  1 7! clk $end
    $var wire 107 R data_i [106:0] $end
    $var wire 107 V data_o [106:0] $end
    $var wire  1 8! rst $end
    $var wire 32 `! size [31:0] $end
   $upscope $end
   $scope module ID_EX $end
    $var wire  1 7! clk $end
    $var wire 155 k data_i [154:0] $end
    $var wire 155 Z data_o [154:0] $end
    $var wire  1 8! rst $end
    $var wire 32 a! size [31:0] $end
   $upscope $end
   $scope module IF_ID $end
    $var wire  1 7! clk $end
    $var wire 64 5! data_i [63:0] $end
    $var wire 64 _ data_o [63:0] $end
    $var wire  1 8! rst $end
    $var wire 32 b! size [31:0] $end
   $upscope $end
   $scope module MEM_WB $end
    $var wire  1 7! clk $end
    $var wire 71 ]! data_i [70:0] $end
    $var wire 71 a data_o [70:0] $end
    $var wire  1 8! rst $end
    $var wire 32 c! size [31:0] $end
   $upscope $end
   $scope module m_ALU $end
    $var wire 32 & A [31:0] $end
    $var wire 32 N ALUOut [31:0] $end
    $var wire  4 , ALUctl [3:0] $end
    $var wire 32 M B [31:0] $end
    $var wire  1 P zero $end
   $upscope $end
   $scope module m_ALUCtrl $end
    $var wire  4 C ALUCtl [3:0] $end
    $var wire  2 L ALUOp [1:0] $end
    $var wire  3 e funct3 [2:0] $end
    $var wire  1 d funct7 $end
   $upscope $end
   $scope module m_Adder_1 $end
    $var wire 32 2! a [31:0] $end
    $var wire 32 d! b [31:0] $end
    $var wire 32 3! sum [31:0] $end
   $upscope $end
   $scope module m_Adder_2 $end
    $var wire 32 % a [31:0] $end
    $var wire 32 ( b [31:0] $end
    $var wire 32 O sum [31:0] $end
   $upscope $end
   $scope module m_Control $end
    $var wire  2 L ALUOp [1:0] $end
    $var wire  1 D ALUSrc $end
    $var wire  1 I branch $end
    $var wire  1 K jalr $end
    $var wire  1 J jump $end
    $var wire  1 E memRead $end
    $var wire  1 F memWrite $end
    $var wire  1 H memtoReg $end
    $var wire  7 f opcode [6:0] $end
    $var wire  1 G regWrite $end
   $upscope $end
   $scope module m_DataMemory $end
    $var wire 32 Y! address [31:0] $end
    $var wire  1 7! clk $end
    $var wire  1 Z! memRead $end
    $var wire  1 9 memWrite $end
    $var wire 32 \! readData [31:0] $end
    $var wire  1 8! rst $end
    $var wire 32 5 writeData [31:0] $end
   $upscope $end
   $scope module m_ImmGen $end
    $var wire 32 B imm [31:0] $end
    $var wire 32 $ inst [31:0] $end
    $var wire  7 f opcode [6:0] $end
   $upscope $end
   $scope module m_InstMem $end
    $var wire 32 4! inst [31:0] $end
    $var wire 32 2! readAddr [31:0] $end
   $upscope $end
   $scope module m_Mux_ALU $end
    $var wire 32 M out [31:0] $end
    $var wire 32 ' s0 [31:0] $end
    $var wire 32 ( s1 [31:0] $end
    $var wire  1 - sel $end
    $var wire 32 e! size [31:0] $end
   $upscope $end
   $scope module m_Mux_WriteData $end
    $var wire 32 Q out [31:0] $end
    $var wire 32 = s0 [31:0] $end
    $var wire 32 > s1 [31:0] $end
    $var wire  1 A sel $end
    $var wire 32 e! size [31:0] $end
   $upscope $end
   $scope module m_PC $end
    $var wire  1 7! clk $end
    $var wire 32 [! pc_i [31:0] $end
    $var wire 32 2! pc_o [31:0] $end
    $var wire  1 8! rst $end
   $upscope $end
   $scope module m_Register $end
    $var wire  1 7! clk $end
    $var wire 32 i readData1 [31:0] $end
    $var wire 32 j readData2 [31:0] $end
    $var wire  5 g readReg1 [4:0] $end
    $var wire  5 h readReg2 [4:0] $end
    $var wire  1 @ regWrite $end
    $var wire 32 p regs[0] [31:0] $end
    $var wire 32 z regs[10] [31:0] $end
    $var wire 32 { regs[11] [31:0] $end
    $var wire 32 | regs[12] [31:0] $end
    $var wire 32 } regs[13] [31:0] $end
    $var wire 32 ~ regs[14] [31:0] $end
    $var wire 32 !! regs[15] [31:0] $end
    $var wire 32 "! regs[16] [31:0] $end
    $var wire 32 #! regs[17] [31:0] $end
    $var wire 32 $! regs[18] [31:0] $end
    $var wire 32 %! regs[19] [31:0] $end
    $var wire 32 q regs[1] [31:0] $end
    $var wire 32 &! regs[20] [31:0] $end
    $var wire 32 '! regs[21] [31:0] $end
    $var wire 32 (! regs[22] [31:0] $end
    $var wire 32 )! regs[23] [31:0] $end
    $var wire 32 *! regs[24] [31:0] $end
    $var wire 32 +! regs[25] [31:0] $end
    $var wire 32 ,! regs[26] [31:0] $end
    $var wire 32 -! regs[27] [31:0] $end
    $var wire 32 .! regs[28] [31:0] $end
    $var wire 32 /! regs[29] [31:0] $end
    $var wire 32 r regs[2] [31:0] $end
    $var wire 32 0! regs[30] [31:0] $end
    $var wire 32 1! regs[31] [31:0] $end
    $var wire 32 s regs[3] [31:0] $end
    $var wire 32 t regs[4] [31:0] $end
    $var wire 32 u regs[5] [31:0] $end
    $var wire 32 v regs[6] [31:0] $end
    $var wire 32 w regs[7] [31:0] $end
    $var wire 32 x regs[8] [31:0] $end
    $var wire 32 y regs[9] [31:0] $end
    $var wire  1 8! rst $end
    $var wire 32 Q writeData [31:0] $end
    $var wire  5 ? writeReg [4:0] $end
   $upscope $end
  $upscope $end
 $upscope $end
$enddefinitions $end


#0
b00000000000000000000000000000000 #
b00000000000000000000000000000000 $
b00000000000000000000000000000000 %
b00000000000000000000000000000000 &
b00000000000000000000000000000000 '
b00000000000000000000000000000000 (
b00000 )
b00000 *
b00000 +
b0000 ,
0-
0.
0/
00
01
02
03
04
b00000000000000000000000000000000 5
b00000000000000000000000000000000 6
b00000 7
08
09
0:
0;
0<
b00000000000000000000000000000000 =
b00000000000000000000000000000000 >
b00000 ?
0@
0A
b00000000000000000000000000000000 B
b0010 C
0D
0E
0F
0G
0H
0I
0J
0K
b00 L
b00000000000000000000000000000000 M
b00000000000000000000000000000000 N
b00000000000000000000000000000000 O
0P
b00000000000000000000000000000000 Q
b00000000000000000000000000000000000000000000000000000000000000000000000000000000000000000000000000000000000 R
b00000000000000000000000000000000000000000000000000000000000000000000000000000000000000000000000000000000000 V
b00000000000000000000000000000000000000000000000000000000000000000000000000000000000000000000000000000000000000000000000000000000000000000000000000000000000 Z
b0000000000000000000000000000000000000000000000000000000000000000 _
b00000000000000000000000000000000000000000000000000000000000000000000000 a
0d
b000 e
b0000000 f
b00000 g
b00000 h
b00000000000000000000000000000000 i
b00000000000000000000000000000000 j
b00000000000000000000000000000000000000000000000000000000000000000000000000000000000000000000000000000000000000000000000000000000000000000000000001000000000 k
b00000000000000000000000000000000 p
b00000000000000000000000000000000 q
b00000000000000000000000000000000 r
b00000000000000000000000000000000 s
b00000000000000000000000000000000 t
b00000000000000000000000000000000 u
b00000000000000000000000000000000 v
b00000000000000000000000000000000 w
b00000000000000000000000000000000 x
b00000000000000000000000000000000 y
b00000000000000000000000000000000 z
b00000000000000000000000000000000 {
b00000000000000000000000000000000 |
b00000000000000000000000000000000 }
b00000000000000000000000000000000 ~
b00000000000000000000000000000000 !!
b00000000000000000000000000000000 "!
b00000000000000000000000000000000 #!
b00000000000000000000000000000000 $!
b00000000000000000000000000000000 %!
b00000000000000000000000000000000 &!
b00000000000000000000000000000000 '!
b00000000000000000000000000000000 (!
b00000000000000000000000000000000 )!
b00000000000000000000000000000000 *!
b00000000000000000000000000000000 +!
b00000000000000000000000000000000 ,!
b00000000000000000000000000000000 -!
b00000000000000000000000000000000 .!
b00000000000000000000000000000000 /!
b00000000000000000000000000000000 0!
b00000000000000000000000000000000 1!
b00000000000000000000000000000000 2!
b00000000000000000000000000000100 3!
b00000000010100000000001100010011 4!
b0000000000000000000000000000010000000000010100000000001100010011 5!
07!
18!
b00000000000000000000000000000000 9!
b00000000000000000000000000000000 :!
b00000000000000000000000000000000 ;!
b00000000000000000000000000000000 <!
b00000000000000000000000000000000 =!
b00000000000000000000000000000000 >!
b00000000000000000000000000000000 ?!
b00000000000000000000000000000000 @!
b00000000000000000000000000000000 A!
b00000000000000000000000000000000 B!
b00000000000000000000000000000000 C!
b00000000000000000000000000000000 D!
b00000000000000000000000000000000 E!
b00000000000000000000000000000000 F!
b00000000000000000000000000000000 G!
b00000000000000000000000000000000 H!
b00000000000000000000000000000000 I!
b00000000000000000000000000000000 J!
b00000000000000000000000000000000 K!
b00000000000000000000000000000000 L!
b00000000000000000000000000000000 M!
b00000000000000000000000000000000 N!
b00000000000000000000000000000000 O!
b00000000000000000000000000000000 P!
b00000000000000000000000000000000 Q!
b00000000000000000000000000000000 R!
b00000000000000000000000000000000 S!
b00000000000000000000000000000000 T!
b00000000000000000000000000000000 U!
b00000000000000000000000000000000 V!
b00000000000000000000000000000000 W!
b00000000000000000000000000000000 X!
b00000000000000000000000000000000 Y!
0Z!
b00000000000000000000000000000100 [!
b00000000000000000000000000000000 \!
b00000000000000000000000000000000000000000000000000000000000000000000000 ]!
b00000000000000000000000001101011 `!
b00000000000000000000000010011011 a!
b00000000000000000000000001000000 b!
b00000000000000000000000001000111 c!
b00000000000000000000000000000100 d!
b00000000000000000000000000100000 e!
#1
b00000000000000000000000010000000 r
17!
08!
b00000000000000000000000010000000 ;!
#2
b00000000000000000000000000000100 #
b00000000010100000000001100010011 $
b0010 ,
b00000000000000000000000000000101 B
1D
1G
b00000000000000000000000000000000000000000000000000000000000000000000000000000000000000000000000000000000000000000000000000000000000000000000000001000000000 Z
b0000000000000000000000000000010000000000010100000000001100010011 _
b0010011 f
b00101 h
b00000000000000000000000000000100000000000000000000000000000000000000000000000000000000000000000000000000000000000000000000000101000000010100110001010010000 k
07!
18!
#3
b00000000000000000000000000000100 %
b00000000000000000000000000000101 (
b00101 *
b00110 +
1-
10
b00000000000000000000000000000101 M
b00000000000000000000000000000101 N
b00000000000000000000000000001001 O
b00000000000000000000000000000101000000000000000000000000000000000000000000000000000000000000100100110000100 R
b00000000000000000000000000000100000000000000000000000000000000000000000000000000000000000000000000000000000000000000000000000101000000010100110001010010000 Z
b00000000000000000000000000000100 2!
b00000000000000000000000000001000 3!
b00000000000000000000000000010011 4!
b0000000000000000000000000000100000000000000000000000000000010011 5!
17!
b00000000000000000000000000001000 [!
#4
07!
#5
b00000000000000000000000000001000 #
b00000000000000000000000000010011 $
b00000000000000000000000000001001 6
b00110 7
1:
b00000000000000000000000000000000 B
b00000000000000000000000000000101000000000000000000000000000000000000000000000000000000000000100100110000100 V
b0000000000000000000000000000100000000000000000000000000000010011 _
b00000 h
b00000000000000000000000000001000000000000000000000000000000000000000000000000000000000000000000000000000000000000000000000000000000000000000000001010010000 k
b00000000000000000000000000001000 2!
b00000000000000000000000000001100 3!
b0000000000000000000000000000110000000000000000000000000000010011 5!
17!
b00000000000000000000000000000101 Y!
b00000000000000000000000000001100 [!
b00000000000000000000000000000101000000000000000000000000000000000011010 ]!
#6
07!
#7
b00000000000000000000000000001100 #
b00000000000000000000000000001000 %
b00000000000000000000000000000000 (
b00000 *
b00000 +
b00000000000000000000000000000101 =
b00110 ?
1@
b00000000000000000000000000000000 M
b00000000000000000000000000000000 N
b00000000000000000000000000001000 O
b00000000000000000000000000000101 Q
b00000000000000000000000000000000000000000000000000000000000000000000000000000000000000000000100000000000100 R
b00000000000000000000000000001000000000000000000000000000000000000000000000000000000000000000000000000000000000000000000000000000000000000000000001010010000 Z
b0000000000000000000000000000110000000000000000000000000000010011 _
b00000000000000000000000000000101000000000000000000000000000000000011010 a
b00000000000000000000000000001100000000000000000000000000000000000000000000000000000000000000000000000000000000000000000000000000000000000000000001010010000 k
b00000000000000000000000000001100 2!
b00000000000000000000000000010000 3!
b0000000000000000000000000001000000000000000000000000000000010011 5!
17!
b00000000000000000000000000010000 [!
#8
b00000000000000000000000000000101 v
07!
b00000000000000000000000000000101 ?!
#9
b00000000000000000000000000010000 #
b00000000000000000000000000001100 %
b00000000000000000000000000001000 6
b00000 7
b00000000000000000000000000001100 O
b00000000000000000000000000000000000000000000000000000000000000000000000000000000000000000000110000000000100 R
b00000000000000000000000000000000000000000000000000000000000000000000000000000000000000000000100000000000100 V
b00000000000000000000000000001100000000000000000000000000000000000000000000000000000000000000000000000000000000000000000000000000000000000000000001010010000 Z
b0000000000000000000000000001000000000000000000000000000000010011 _
b00000000000000000000000000010000000000000000000000000000000000000000000000000000000000000000000000000000000000000000000000000000000000000000000001010010000 k
b00000000000000000000000000010000 2!
b00000000000000000000000000010100 3!
b0000000000000000000000000001010000000000000000000000000000010011 5!
17!
b00000000000000000000000000000000 Y!
b00000000000000000000000000010100 [!
b00000000000000000000000000000000000000000000000000000000000000000000010 ]!
#10
07!
#11
b00000000000000000000000000010100 #
b00000000000000000000000000010000 %
b00000000000000000000000000001100 6
b00000000000000000000000000000000 =
b00000 ?
b00000000000000000000000000010000 O
b00000000000000000000000000000000 Q
b00000000000000000000000000000000000000000000000000000000000000000000000000000000000000000001000000000000100 R
b00000000000000000000000000000000000000000000000000000000000000000000000000000000000000000000110000000000100 V
b00000000000000000000000000010000000000000000000000000000000000000000000000000000000000000000000000000000000000000000000000000000000000000000000001010010000 Z
b0000000000000000000000000001010000000000000000000000000000010011 _
b00000000000000000000000000000000000000000000000000000000000000000000010 a
b00000000000000000000000000010100000000000000000000000000000000000000000000000000000000000000000000000000000000000000000000000000000000000000000001010010000 k
b00000000000000000000000000010100 2!
b00000000000000000000000000011000 3!
b00000000101000000000001110010011 4!
b0000000000000000000000000001100000000000101000000000001110010011 5!
17!
b00000000000000000000000000011000 [!
#12
07!
#13
b00000000000000000000000000011000 #
b00000000101000000000001110010011 $
b00000000000000000000000000010100 %
b00000000000000000000000000010000 6
b00000000000000000000000000001010 B
b00000000000000000000000000010100 O
b00000000000000000000000000000000000000000000000000000000000000000000000000000000000000000001010000000000100 R
b00000000000000000000000000000000000000000000000000000000000000000000000000000000000000000001000000000000100 V
b00000000000000000000000000010100000000000000000000000000000000000000000000000000000000000000000000000000000000000000000000000000000000000000000001010010000 Z
b0000000000000000000000000001100000000000101000000000001110010011 _
b01010 h
b00000000000000000000000000011000000000000000000000000000000000000000000000000000000000000000000000000000000000000000000000001010000000101000111001010010000 k
b00000000000000000000000000011000 2!
b00000000000000000000000000011100 3!
b00000000000000000000000000010011 4!
b0000000000000000000000000001110000000000000000000000000000010011 5!
17!
b00000000000000000000000000011100 [!
#14
07!
#15
b00000000000000000000000000011100 #
b00000000000000000000000000010011 $
b00000000000000000000000000011000 %
b00000000000000000000000000001010 (
b01010 *
b00111 +
b00000000000000000000000000010100 6
b00000000000000000000000000000000 B
b00000000000000000000000000001010 M
b00000000000000000000000000001010 N
b00000000000000000000000000100010 O
b00000000000000000000000000001010000000000000000000000000000000000000000000000000000000000010001000111000100 R
b00000000000000000000000000000000000000000000000000000000000000000000000000000000000000000001010000000000100 V
b00000000000000000000000000011000000000000000000000000000000000000000000000000000000000000000000000000000000000000000000000001010000000101000111001010010000 Z
b0000000000000000000000000001110000000000000000000000000000010011 _
b00000 h
b00000000000000000000000000011100000000000000000000000000000000000000000000000000000000000000000000000000000000000000000000000000000000000000000001010010000 k
b00000000000000000000000000011100 2!
b00000000000000000000000000100000 3!
b0000000000000000000000000010000000000000000000000000000000010011 5!
17!
b00000000000000000000000000100000 [!
#16
07!
#17
b00000000000000000000000000100000 #
b00000000000000000000000000011100 %
b00000000000000000000000000000000 (
b00000 *
b00000 +
b00000000000000000000000000100010 6
b00111 7
b00000000000000000000000000000000 M
b00000000000000000000000000000000 N
b00000000000000000000000000011100 O
b00000000000000000000000000000000000000000000000000000000000000000000000000000000000000000001110000000000100 R
b00000000000000000000000000001010000000000000000000000000000000000000000000000000000000000010001000111000100 V
b00000000000000000000000000011100000000000000000000000000000000000000000000000000000000000000000000000000000000000000000000000000000000000000000001010010000 Z
b0000000000000000000000000010000000000000000000000000000000010011 _
b00000000000000000000000000100000000000000000000000000000000000000000000000000000000000000000000000000000000000000000000000000000000000000000000001010010000 k
b00000000000000000000000000100000 2!
b00000000000000000000000000100100 3!
b0000000000000000000000000010010000000000000000000000000000010011 5!
17!
b00000000000000000000000000001010 Y!
b00000000000000000000000000100100 [!
b00000000000000000000000000001010000000000000000000000000000000000011110 ]!
#18
07!
#19
b00000000000000000000000000100100 #
b00000000000000000000000000100000 %
b00000000000000000000000000011100 6
b00000 7
b00000000000000000000000000001010 =
b00111 ?
b00000000000000000000000000100000 O
b00000000000000000000000000001010 Q
b00000000000000000000000000000000000000000000000000000000000000000000000000000000000000000010000000000000100 R
b00000000000000000000000000000000000000000000000000000000000000000000000000000000000000000001110000000000100 V
b00000000000000000000000000100000000000000000000000000000000000000000000000000000000000000000000000000000000000000000000000000000000000000000000001010010000 Z
b0000000000000000000000000010010000000000000000000000000000010011 _
b00000000000000000000000000001010000000000000000000000000000000000011110 a
b00000000000000000000000000100100000000000000000000000000000000000000000000000000000000000000000000000000000000000000000000000000000000000000000001010010000 k
b00000000000000000000000000100100 2!
b00000000000000000000000000101000 3!
b0000000000000000000000000010100000000000000000000000000000010011 5!
17!
b00000000000000000000000000000000 Y!
b00000000000000000000000000101000 [!
b00000000000000000000000000000000000000000000000000000000000000000000010 ]!
#20
b00000000000000000000000000001010 w
07!
b00000000000000000000000000001010 @!
#21
b00000000000000000000000000101000 #
b00000000000000000000000000100100 %
b00000000000000000000000000100000 6
b00000000000000000000000000000000 =
b00000 ?
b00000000000000000000000000100100 O
b00000000000000000000000000000000 Q
b00000000000000000000000000000000000000000000000000000000000000000000000000000000000000000010010000000000100 R
b00000000000000000000000000000000000000000000000000000000000000000000000000000000000000000010000000000000100 V
b00000000000000000000000000100100000000000000000000000000000000000000000000000000000000000000000000000000000000000000000000000000000000000000000001010010000 Z
b0000000000000000000000000010100000000000000000000000000000010011 _
b00000000000000000000000000000000000000000000000000000000000000000000010 a
b00000000000000000000000000101000000000000000000000000000000000000000000000000000000000000000000000000000000000000000000000000000000000000000000001010010000 k
b00000000000000000000000000101000 2!
b00000000000000000000000000101100 3!
b00000000011100110010011010110011 4!
b0000000000000000000000000010110000000000011100110010011010110011 5!
17!
b00000000000000000000000000101100 [!
#22
07!
#23
b00000000000000000000000000101100 #
b00000000011100110010011010110011 $
b00000000000000000000000000101000 %
b00000000000000000000000000100100 6
b0111 C
0D
b10 L
b00000000000000000000000000101000 O
b00000000000000000000000000000000000000000000000000000000000000000000000000000000000000000010100000000000100 R
b00000000000000000000000000000000000000000000000000000000000000000000000000000000000000000010010000000000100 V
b00000000000000000000000000101000000000000000000000000000000000000000000000000000000000000000000000000000000000000000000000000000000000000000000001010010000 Z
b0000000000000000000000000010110000000000011100110010011010110011 _
b010 e
b0110011 f
b00110 g
b00111 h
b00000000000000000000000000000101 i
b00000000000000000000000000001010 j
b00000000000000000000000000101100000000000000000000000000000001010000000000000000000000000000101000000000000000000000000000000000001100011101101011100010000 k
b00000000000000000000000000101100 2!
b00000000000000000000000000110000 3!
b00000000000000000000000000000000 4!
b0000000000000000000000000011000000000000000000000000000000000000 5!
17!
b00000000000000000000000000110000 [!
#24
07!
#25
b00000000000000000000000000110000 #
b00000000000000000000000000000000 $
b00000000000000000000000000101100 %
b00000000000000000000000000000101 &
b00000000000000000000000000001010 '
b00110 )
b00111 *
b01101 +
b0111 ,
0-
b00000000000000000000000000101000 6
b0010 C
0G
b00 L
b00000000000000000000000000001010 M
b00000000000000000000000000000001 N
b00000000000000000000000000101100 O
b00000000000000000000000000000001000000000000000000000000000010100000000000000000000000000010110001101000100 R
b00000000000000000000000000000000000000000000000000000000000000000000000000000000000000000010100000000000100 V
b00000000000000000000000000101100000000000000000000000000000001010000000000000000000000000000101000000000000000000000000000000000001100011101101011100010000 Z
b0000000000000000000000000011000000000000000000000000000000000000 _
b000 e
b0000000 f
b00000 g
b00000 h
b00000000000000000000000000000000 i
b00000000000000000000000000000000 j
b00000000000000000000000000110000000000000000000000000000000000000000000000000000000000000000000000000000000000000000000000000000000000000000000001000000000 k
b00000000000000000000000000110000 2!
b00000000000000000000000000110100 3!
b0000000000000000000000000011010000000000000000000000000000000000 5!
17!
b00000000000000000000000000110100 [!
#26
07!
#27
b00000000000000000000000000110100 #
b00000000000000000000000000110000 %
b00000000000000000000000000000000 &
b00000000000000000000000000000000 '
b00000 )
b00000 *
b00000 +
b0010 ,
00
b00000000000000000000000000001010 5
b00000000000000000000000000101100 6
b01101 7
b00000000000000000000000000000000 M
b00000000000000000000000000000000 N
b00000000000000000000000000110000 O
b00000000000000000000000000000000000000000000000000000000000000000000000000000000000000000011000000000000000 R
b00000000000000000000000000000001000000000000000000000000000010100000000000000000000000000010110001101000100 V
b00000000000000000000000000110000000000000000000000000000000000000000000000000000000000000000000000000000000000000000000000000000000000000000000001000000000 Z
b0000000000000000000000000011010000000000000000000000000000000000 _
b00000000000000000000000000110100000000000000000000000000000000000000000000000000000000000000000000000000000000000000000000000000000000000000000001000000000 k
b00000000000000000000000000110100 2!
b00000000000000000000000000111000 3!
b0000000000000000000000000011100000000000000000000000000000000000 5!
17!
b00000000000000000000000000000001 Y!
b00000000000000000000000000111000 [!
b00000000000000000000000000000001000000000000000000000000000000000110110 ]!
#28
07!
#29
b00000000000000000000000000111000 #
b00000000000000000000000000110100 %
b00000000000000000000000000000000 5
b00000000000000000000000000110000 6
b00000 7
0:
b00000000000000000000000000000001 =
b01101 ?
b00000000000000000000000000110100 O
b00000000000000000000000000000001 Q
b00000000000000000000000000000000000000000000000000000000000000000000000000000000000000000011010000000000000 R
b00000000000000000000000000000000000000000000000000000000000000000000000000000000000000000011000000000000000 V
b00000000000000000000000000110100000000000000000000000000000000000000000000000000000000000000000000000000000000000000000000000000000000000000000001000000000 Z
b0000000000000000000000000011100000000000000000000000000000000000 _
b00000000000000000000000000000001000000000000000000000000000000000110110 a
b00000000000000000000000000111000000000000000000000000000000000000000000000000000000000000000000000000000000000000000000000000000000000000000000001000000000 k
b00000000000000000000000000111000 2!
b00000000000000000000000000111100 3!
b0000000000000000000000000011110000000000000000000000000000000000 5!
17!
b00000000000000000000000000000000 Y!
b00000000000000000000000000111100 [!
b00000000000000000000000000000000000000000000000000000000000000000000000 ]!
#30
b00000000000000000000000000000001 }
07!
b00000000000000000000000000000001 F!
#31
b00000000000000000000000000111100 #
b00000000000000000000000000111000 %
b00000000000000000000000000110100 6
b00000000000000000000000000000000 =
b00000 ?
0@
b00000000000000000000000000111000 O
b00000000000000000000000000000000 Q
b00000000000000000000000000000000000000000000000000000000000000000000000000000000000000000011100000000000000 R
b00000000000000000000000000000000000000000000000000000000000000000000000000000000000000000011010000000000000 V
b00000000000000000000000000111000000000000000000000000000000000000000000000000000000000000000000000000000000000000000000000000000000000000000000001000000000 Z
b0000000000000000000000000011110000000000000000000000000000000000 _
b00000000000000000000000000000000000000000000000000000000000000000000000 a
b00000000000000000000000000111100000000000000000000000000000000000000000000000000000000000000000000000000000000000000000000000000000000000000000001000000000 k
b00000000000000000000000000111100 2!
b00000000000000000000000001000000 3!
b0000000000000000000000000100000000000000000000000000000000000000 5!
17!
b00000000000000000000000001000000 [!
#32
07!
#33
b00000000000000000000000001000000 #
b00000000000000000000000000111100 %
b00000000000000000000000000111000 6
b00000000000000000000000000111100 O
b00000000000000000000000000000000000000000000000000000000000000000000000000000000000000000011110000000000000 R
b00000000000000000000000000000000000000000000000000000000000000000000000000000000000000000011100000000000000 V
b00000000000000000000000000111100000000000000000000000000000000000000000000000000000000000000000000000000000000000000000000000000000000000000000001000000000 Z
b0000000000000000000000000100000000000000000000000000000000000000 _
b00000000000000000000000001000000000000000000000000000000000000000000000000000000000000000000000000000000000000000000000000000000000000000000000001000000000 k
b00000000000000000000000001000000 2!
b00000000000000000000000001000100 3!
b0000000000000000000000000100010000000000000000000000000000000000 5!
17!
b00000000000000000000000001000100 [!
#34
07!
