CO-LAB2/waveform.vcd
$version Generated by VerilatedVcd $end
$timescale 1s $end

 $scope module TOP $end
  $var wire  1 c clk $end
  $var wire 32 e r[0] [31:0] $end
  $var wire 32 o r[10] [31:0] $end
  $var wire 32 p r[11] [31:0] $end
  $var wire 32 q r[12] [31:0] $end
  $var wire 32 r r[13] [31:0] $end
  $var wire 32 s r[14] [31:0] $end
  $var wire 32 t r[15] [31:0] $end
  $var wire 32 u r[16] [31:0] $end
  $var wire 32 v r[17] [31:0] $end
  $var wire 32 w r[18] [31:0] $end
  $var wire 32 x r[19] [31:0] $end
  $var wire 32 f r[1] [31:0] $end
  $var wire 32 y r[20] [31:0] $end
  $var wire 32 z r[21] [31:0] $end
  $var wire 32 { r[22] [31:0] $end
  $var wire 32 | r[23] [31:0] $end
  $var wire 32 } r[24] [31:0] $end
  $var wire 32 ~ r[25] [31:0] $end
  $var wire 32 !! r[26] [31:0] $end
  $var wire 32 "! r[27] [31:0] $end
  $var wire 32 #! r[28] [31:0] $end
  $var wire 32 $! r[29] [31:0] $end
  $var wire 32 g r[2] [31:0] $end
  $var wire 32 %! r[30] [31:0] $end
  $var wire 32 &! r[31] [31:0] $end
  $var wire 32 h r[3] [31:0] $end
  $var wire 32 i r[4] [31:0] $end
  $var wire 32 j r[5] [31:0] $end
  $var wire 32 k r[6] [31:0] $end
  $var wire 32 l r[7] [31:0] $end
  $var wire 32 m r[8] [31:0] $end
  $var wire 32 n r[9] [31:0] $end
  $var wire  1 d start $end
  $scope module SingleCycleCPU $end
   $var wire  4 I ALU_Control [3:0] $end
   $var wire 32 ` ALU_result [31:0] $end
   $var wire  1 b ALU_zero $end
   $var wire  1 J Branch $end
   $var wire  1 Q Jalr $end
   $var wire  1 P Jump $end
   $var wire 32 a Mux_ALU [31:0] $end
   $var wire 32 D addout_1 [31:0] $end
   $var wire 32 E addout_2 [31:0] $end
   $var wire  2 R aluop [1:0] $end
   $var wire  1 N alusrc $end
   $var wire  1 c clk $end
   $var wire 32 '! data_memory_out [31:0] $end
   $var wire 32 Z final_pc_in [31:0] $end
   $var wire 32 )! final_write_data [31:0] $end
   $var wire 32 F im_out [31:0] $end
   $var wire 32 G imm_gen [31:0] $end
   $var wire 32 H imm_gen_shift [31:0] $end
   $var wire  1 K memread $end
   $var wire  1 L memtoreg $end
   $var wire  1 M memwrite $end
   $var wire 32 (! mux_write_data_out [31:0] $end
   $var wire 32 ] new_pc_value [31:0] $end
   $var wire 32 Y pc_in [31:0] $end
   $var wire 32 C pc_out [31:0] $end
   $var wire 32 D pc_plus_4 [31:0] $end
   $var wire 32 e r[0] [31:0] $end
   $var wire 32 o r[10] [31:0] $end
   $var wire 32 p r[11] [31:0] $end
   $var wire 32 q r[12] [31:0] $end
   $var wire 32 r r[13] [31:0] $end
   $var wire 32 s r[14] [31:0] $end
   $var wire 32 t r[15] [31:0] $end
   $var wire 32 u r[16] [31:0] $end
   $var wire 32 v r[17] [31:0] $end
   $var wire 32 w r[18] [31:0] $end
   $var wire 32 x r[19] [31:0] $end
   $var wire 32 f r[1] [31:0] $end
   $var wire 32 y r[20] [31:0] $end
   $var wire 32 z r[21] [31:0] $end
   $var wire 32 { r[22] [31:0] $end
   $var wire 32 | r[23] [31:0] $end
   $var wire 32 } r[24] [31:0] $end
   $var wire 32 ~ r[25] [31:0] $end
   $var wire 32 !! r[26] [31:0] $end
   $var wire 32 "! r[27] [31:0] $end
   $var wire 32 #! r[28] [31:0] $end
   $var wire 32 $! r[29] [31:0] $end
   $var wire 32 g r[2] [31:0] $end
   $var wire 32 %! r[30] [31:0] $end
   $var wire 32 &! r[31] [31:0] $end
   $var wire 32 h r[3] [31:0] $end
   $var wire 32 i r[4] [31:0] $end
   $var wire 32 j r[5] [31:0] $end
   $var wire 32 k r[6] [31:0] $end
   $var wire 32 l r[7] [31:0] $end
   $var wire 32 m r[8] [31:0] $end
   $var wire 32 n r[9] [31:0] $end
   $var wire 32 ^ readdata1 [31:0] $end
   $var wire 32 _ readdata2 [31:0] $end
   $var wire  1 O regwrite $end
   $var wire 32 ^ rs1_value [31:0] $end
   $var wire  1 \ sell $end
   $var wire  1 d start $end
   $var wire 32 [ updated_pc [31:0] $end
   $scope module m_ALU $end
    $var wire 32 ^ A [31:0] $end
    $var wire 32 ` ALUOut [31:0] $end
    $var wire  4 I ALUctl [3:0] $end
    $var wire 32 a B [31:0] $end
    $var wire  1 b zero $end
   $upscope $end
   $scope module m_ALUCtrl $end
    $var wire  4 I ALUCtl [3:0] $end
    $var wire  2 R ALUOp [1:0] $end
    $var wire  3 T funct3 [2:0] $end
    $var wire  1 S funct7 $end
   $upscope $end
   $scope module m_Adder_1 $end
    $var wire 32 C a [31:0] $end
    $var wire 32 *! b [31:0] $end
    $var wire 32 D sum [31:0] $end
   $upscope $end
   $scope module m_Adder_2 $end
    $var wire 32 C a [31:0] $end
    $var wire 32 H b [31:0] $end
    $var wire 32 E sum [31:0] $end
   $upscope $end
   $scope module m_Adder_JAL $end
    $var wire 32 C a [31:0] $end
    $var wire 32 *! b [31:0] $end
    $var wire 32 D sum [31:0] $end
   $upscope $end
   $scope module m_Control $end
    $var wire  2 R ALUOp [1:0] $end
    $var wire  1 N ALUSrc $end
    $var wire  1 J branch $end
    $var wire  1 Q jalr $end
    $var wire  1 P jump $end
    $var wire  1 K memRead $end
    $var wire  1 M memWrite $end
    $var wire  1 L memtoReg $end
    $var wire  7 U opcode [6:0] $end
    $var wire  1 O regWrite $end
   $upscope $end
   $scope module m_DataMemory $end
    $var wire 32 ` address [31:0] $end
    $var wire  1 c clk $end
    $var wire  1 K memRead $end
    $var wire  1 M memWrite $end
    $var wire 32 '! readData [31:0] $end
    $var wire  1 d rst $end
    $var wire 32 _ writeData [31:0] $end
   $upscope $end
   $scope module m_ImmGen $end
    $var wire 32 G imm [31:0] $end
    $var wire 32 F inst [31:0] $end
    $var wire  7 U opcode [6:0] $end
   $upscope $end
   $scope module m_InstMem $end
    $var wire 32 F inst [31:0] $end
    $var wire 32 C readAddr [31:0] $end
   $upscope $end
   $scope module m_Mux_ALU $end
    $var wire 32 a out [31:0] $end
    $var wire 32 _ s0 [31:0] $end
    $var wire 32 G s1 [31:0] $end
    $var wire  1 N sel $end
    $var wire 32 +! size [31:0] $end
   $upscope $end
   $scope module m_Mux_JALR_PC $end
    $var wire 32 [ out [31:0] $end
    $var wire 32 Z s0 [31:0] $end
    $var wire 32 ] s1 [31:0] $end
    $var wire  1 Q sel $end
    $var wire 32 +! size [31:0] $end
   $upscope $end
   $scope module m_Mux_JAL_WriteData $end
    $var wire 32 )! out [31:0] $end
    $var wire 32 (! s0 [31:0] $end
    $var wire 32 D s1 [31:0] $end
    $var wire  1 P sel $end
    $var wire 32 +! size [31:0] $end
   $upscope $end
   $scope module m_Mux_Jump $end
    $var wire 32 Z out [31:0] $end
    $var wire 32 Y s0 [31:0] $end
    $var wire 32 E s1 [31:0] $end
    $var wire  1 P sel $end
    $var wire 32 +! size [31:0] $end
   $upscope $end
   $scope module m_Mux_PC $end
    $var wire 32 Y out [31:0] $end
    $var wire 32 D s0 [31:0] $end
    $var wire 32 E s1 [31:0] $end
    $var wire  1 \ sel $end
    $var wire 32 +! size [31:0] $end
   $upscope $end
   $scope module m_Mux_WriteData $end
    $var wire 32 (! out [31:0] $end
    $var wire 32 ` s0 [31:0] $end
    $var wire 32 '! s1 [31:0] $end
    $var wire  1 L sel $end
    $var wire 32 +! size [31:0] $end
   $upscope $end
   $scope module m_PC $end
    $var wire  1 c clk $end
    $var wire 32 [ pc_i [31:0] $end
    $var wire 32 C pc_o [31:0] $end
    $var wire  1 d rst $end
   $upscope $end
   $scope module m_Register $end
    $var wire  1 c clk $end
    $var wire 32 ^ readData1 [31:0] $end
    $var wire 32 _ readData2 [31:0] $end
    $var wire  5 V readReg1 [4:0] $end
    $var wire  5 W readReg2 [4:0] $end
    $var wire  1 O regWrite $end
    $var wire 32 # regs[0] [31:0] $end
    $var wire 32 - regs[10] [31:0] $end
    $var wire 32 . regs[11] [31:0] $end
    $var wire 32 / regs[12] [31:0] $end
    $var wire 32 0 regs[13] [31:0] $end
    $var wire 32 1 regs[14] [31:0] $end
    $var wire 32 2 regs[15] [31:0] $end
    $var wire 32 3 regs[16] [31:0] $end
    $var wire 32 4 regs[17] [31:0] $end
    $var wire 32 5 regs[18] [31:0] $end
    $var wire 32 6 regs[19] [31:0] $end
    $var wire 32 $ regs[1] [31:0] $end
    $var wire 32 7 regs[20] [31:0] $end
    $var wire 32 8 regs[21] [31:0] $end
    $var wire 32 9 regs[22] [31:0] $end
    $var wire 32 : regs[23] [31:0] $end
    $var wire 32 ; regs[24] [31:0] $end
    $var wire 32 < regs[25] [31:0] $end
    $var wire 32 = regs[26] [31:0] $end
    $var wire 32 > regs[27] [31:0] $end
    $var wire 32 ? regs[28] [31:0] $end
    $var wire 32 @ regs[29] [31:0] $end
    $var wire 32 % regs[2] [31:0] $end
    $var wire 32 A regs[30] [31:0] $end
    $var wire 32 B regs[31] [31:0] $end
    $var wire 32 & regs[3] [31:0] $end
    $var wire 32 ' regs[4] [31:0] $end
    $var wire 32 ( regs[5] [31:0] $end
    $var wire 32 ) regs[6] [31:0] $end
    $var wire 32 * regs[7] [31:0] $end
    $var wire 32 + regs[8] [31:0] $end
    $var wire 32 , regs[9] [31:0] $end
    $var wire  1 d rst $end
    $var wire 32 )! writeData [31:0] $end
    $var wire  5 X writeReg [4:0] $end
   $upscope $end
   $scope module m_ShiftLeftOne $end
    $var wire 32 G i [31:0] $end
    $var wire 32 H o [31:0] $end
   $upscope $end
  $upscope $end
 $upscope $end
$enddefinitions $end


#0
b00000000000000000000000000000000 #
b00000000000000000000000000000000 $
b00000000000000000000000000000000 %
b00000000000000000000000000000000 &
b00000000000000000000000000000000 '
b00000000000000000000000000000000 (
b00000000000000000000000000000000 )
b00000000000000000000000000000000 *
b00000000000000000000000000000000 +
b00000000000000000000000000000000 ,
b00000000000000000000000000000000 -
b00000000000000000000000000000000 .
b00000000000000000000000000000000 /
b00000000000000000000000000000000 0
b00000000000000000000000000000000 1
b00000000000000000000000000000000 2
b00000000000000000000000000000000 3
b00000000000000000000000000000000 4
b00000000000000000000000000000000 5
b00000000000000000000000000000000 6
b00000000000000000000000000000000 7
b00000000000000000000000000000000 8
b00000000000000000000000000000000 9
b00000000000000000000000000000000 :
b00000000000000000000000000000000 ;
b00000000000000000000000000000000 <
b00000000000000000000000000000000 =
b00000000000000000000000000000000 >
b00000000000000000000000000000000 ?
b00000000000000000000000000000000 @
b00000000000000000000000000000000 A
b00000000000000000000000000000000 B
b00000000000000000000000000000000 C
b00000000000000000000000000000100 D
b00000000000000000000000000001000 E
b00000000010000000000011000010011 F
b00000000000000000000000000000100 G
b00000000000000000000000000001000 H
b0010 I
0J
0K
0L
0M
1N
1O
0P
0Q
b00 R
0S
b000 T
b0010011 U
b00000 V
b00100 W
b01100 X
b00000000000000000000000000000100 Y
b00000000000000000000000000000100 Z
b00000000000000000000000000000100 [
0\
b00000000000000000000000000000100 ]
b00000000000000000000000000000000 ^
b00000000000000000000000000000000 _
b00000000000000000000000000000100 `
b00000000000000000000000000000100 a
0b
0c
1d
b00000000000000000000000000000000 e
b00000000000000000000000000000000 f
b00000000000000000000000000000000 g
b00000000000000000000000000000000 h
b00000000000000000000000000000000 i
b00000000000000000000000000000000 j
b00000000000000000000000000000000 k
b00000000000000000000000000000000 l
b00000000000000000000000000000000 m
b00000000000000000000000000000000 n
b00000000000000000000000000000000 o
b00000000000000000000000000000000 p
b00000000000000000000000000000000 q
b00000000000000000000000000000000 r
b00000000000000000000000000000000 s
b00000000000000000000000000000000 t
b00000000000000000000000000000000 u
b00000000000000000000000000000000 v
b00000000000000000000000000000000 w
b00000000000000000000000000000000 x
b00000000000000000000000000000000 y
b00000000000000000000000000000000 z
b00000000000000000000000000000000 {
b00000000000000000000000000000000 |
b00000000000000000000000000000000 }
b00000000000000000000000000000000 ~
b00000000000000000000000000000000 !!
b00000000000000000000000000000000 "!
b00000000000000000000000000000000 #!
b00000000000000000000000000000000 $!
b00000000000000000000000000000000 %!
b00000000000000000000000000000000 &!
b00000000000000000000000000000000 '!
b00000000000000000000000000000100 (!
b00000000000000000000000000000100 )!
b00000000000000000000000000000100 *!
b00000000000000000000000000100000 +!
#1
b00000000000000000000000010000000 %
1c
0d
b00000000000000000000000010000000 g
#2
b00000000000000000000000000000100 /
0c
1d
b00000000000000000000000000000100 q
#3
b00000000000000000000000000000100 C
b00000000000000000000000000001000 D
b00000000000000000000000000010000 E
b00000000110000000000000011101111 F
b00000000000000000000000000000110 G
b00000000000000000000000000001100 H
b1110 I
1L
1P
b11 R
b1101111 U
b01100 W
b00001 X
b00000000000000000000000000001000 Y
b00000000000000000000000000010000 Z
b00000000000000000000000000010000 [
b00000000000000000000000000000110 ]
b00000000000000000000000000000100 _
b00000000000000000000000000000110 `
b00000000000000000000000000000110 a
1b
1c
b00000000000000000000000000000000 (!
b00000000000000000000000000001000 )!
#4
b00000000000000000000000000001000 $
0c
b00000000000000000000000000001000 f
#5
b00000000000000000000000000010000 C
b00000000000000000000000000010100 D
b11111111111111111111111111111000 E
b11111111010000010000000100010011 F
b11111111111111111111111111110100 G
b11111111111111111111111111101000 H
b0010 I
0L
0P
b00 R
1S
b0010011 U
b00010 V
b10100 W
b00010 X
b00000000000000000000000000010100 Y
b00000000000000000000000000010100 Z
b00000000000000000000000000010100 [
b00000000000000000000000001110100 ]
b00000000000000000000000010000000 ^
b00000000000000000000000000000000 _
b00000000000000000000000001110100 `
b11111111111111111111111111110100 a
0b
1c
b00000000000000000000000001110100 (!
b00000000000000000000000001110100 )!
#6
b00000000000000000000000001110100 %
b00000000000000000000000001101000 ]
b00000000000000000000000001110100 ^
b00000000000000000000000001101000 `
0c
b00000000000000000000000001110100 g
b00000000000000000000000001101000 (!
b00000000000000000000000001101000 )!
#7
b00000000000000000000000000010100 C
b00000000000000000000000000011000 D
b00000000000000000000000000100100 E
b00000000000100010010010000100011 F
b00000000000000000000000000001000 G
b00000000000000000000000000010000 H
b0111 I
1M
0O
0S
b010 T
b0100011 U
b00001 W
b01000 X
b00000000000000000000000000011000 Y
b00000000000000000000000000011000 Z
b00000000000000000000000000011000 [
b00000000000000000000000001111100 ]
b00000000000000000000000000001000 _
b00000000000000000000000001101100 `
b00000000000000000000000000001000 a
1c
b00000000000000000000000001101100 (!
b00000000000000000000000001101100 )!
#8
0c
#9
b00000000000000000000000000011000 C
b00000000000000000000000000011100 D
b00000000000000000000000000100000 E
b00000000100000010010001000100011 F
b00000000000000000000000000000100 G
b00000000000000000000000000001000 H
b01000 W
b00100 X
b00000000000000000000000000011100 Y
b00000000000000000000000000011100 Z
b00000000000000000000000000011100 [
b00000000000000000000000001111000 ]
b00000000000000000000000000000000 _
b00000000000000000000000001110000 `
b00000000000000000000000000000100 a
1c
b00000000000000000000000001110000 (!
b00000000000000000000000001110000 )!
#10
0c
#11
b00000000000000000000000000011100 C
b00000000000000000000000000100000 D
b00000000000000000000000000011100 E
b00000000000000000000010100010011 F
b00000000000000000000000000000000 G
b00000000000000000000000000000000 H
b0010 I
0M
1O
b000 T
b0010011 U
b00000 V
b00000 W
b01010 X
b00000000000000000000000000100000 Y
b00000000000000000000000000100000 Z
b00000000000000000000000000100000 [
b00000000000000000000000000000000 ]
b00000000000000000000000000000000 ^
b00000000000000000000000000000000 `
b00000000000000000000000000000000 a
1c
b00000000000000000000000000000000 (!
b00000000000000000000000000000000 )!
#12
0c
#13
b00000000000000000000000000100000 C
b00000000000000000000000000100100 D
b00000000000000000000000001001100 E
b00000010000001100000011001100011 F
b00000000000000000000000000010110 G
b00000000000000000000000000101100 H
b1001 I
1J
0N
0O
b01 R
b1100011 U
b01100 V
b01100 X
b00000000000000000000000000100100 Y
b00000000000000000000000000100100 Z
b00000000000000000000000000100100 [
b00000000000000000000000000011010 ]
b00000000000000000000000000000100 ^
b00000000000000000000000000000100 `
1c
b00000000000000000000000000000100 (!
b00000000000000000000000000000100 )!
#14
0c
#15
b00000000000000000000000000100100 C
b00000000000000000000000000101000 D
b00000000000000000000000000100110 E
b00000000000101010000010100010011 F
b00000000000000000000000000000001 G
b00000000000000000000000000000010 H
b0010 I
0J
1N
1O
b00 R
b0010011 U
b01010 V
b00001 W
b01010 X
b00000000000000000000000000101000 Y
b00000000000000000000000000101000 Z
b00000000000000000000000000101000 [
b00000000000000000000000000000000 ]
b00000000000000000000000000000000 ^
b00000000000000000000000000001000 _
b00000000000000000000000000000001 `
b00000000000000000000000000000001 a
1c
b00000000000000000000000000000001 (!
b00000000000000000000000000000001 )!
#16
b00000000000000000000000000000001 -
b00000000000000000000000000000010 ]
b00000000000000000000000000000001 ^
b00000000000000000000000000000010 `
0c
b00000000000000000000000000000001 o
b00000000000000000000000000000010 (!
b00000000000000000000000000000010 )!
#17
b00000000000000000000000000101000 C
b00000000000000000000000000101100 D
b00000000000000000000000001001100 E
b00000010101001100000001001100011 F
b00000000000000000000000000010010 G
b00000000000000000000000000100100 H
b1001 I
1J
0N
0O
b01 R
b1100011 U
b01100 V
b01010 W
b00100 X
b00000000000000000000000000101100 Y
b00000000000000000000000000101100 Z
b00000000000000000000000000101100 [
b00000000000000000000000000010110 ]
b00000000000000000000000000000100 ^
b00000000000000000000000000000001 _
b00000000000000000000000000000011 `
1c
b00000000000000000000000000000011 (!
b00000000000000000000000000000011 )!
#18
0c
#19
b00000000000000000000000000101100 C
b00000000000000000000000000110000 D
b00000000000000000000000000101010 E
b11111111111101100000011000010011 F
b11111111111111111111111111111111 G
b11111111111111111111111111111110 H
b0010 I
0J
1N
1O
b00 R
1S
b0010011 U
b11111 W
b01100 X
b00000000000000000000000000110000 Y
b00000000000000000000000000110000 Z
b00000000000000000000000000110000 [
b00000000000000000000000000000010 ]
b00000000000000000000000000000000 _
b11111111111111111111111111111111 a
1c
#20
b00000000000000000000000000000011 /
b00000000000000000000000000000011 ^
b00000000000000000000000000000010 `
0c
b00000000000000000000000000000011 q
b00000000000000000000000000000010 (!
b00000000000000000000000000000010 )!
#21
b00000000000000000000000000110000 C
b00000000000000000000000000110100 D
b00000000000000000000000000110000 E
b00000000110000010010000000100011 F
b00000000000000000000000000000000 G
b00000000000000000000000000000000 H
b0111 I
1M
0O
0S
b010 T
b0100011 U
b00010 V
b01100 W
b00000 X
b00000000000000000000000000110100 Y
b00000000000000000000000000110100 Z
b00000000000000000000000000110100 [
b00000000000000000000000001110100 ]
b00000000000000000000000001110100 ^
b00000000000000000000000000000011 _
b00000000000000000000000001110100 `
b00000000000000000000000000000000 a
1c
b00000000000000000000000001110100 (!
b00000000000000000000000001110100 )!
#22
0c
#23
b00000000000000000000000000110100 C
b00000000000000000000000000111000 D
b00000000000000000000000000010000 E
b11111101110111111111000011101111 F
b11111111111111111111111111101110 G
b11111111111111111111111111011100 H
b0010 I
1L
0M
1O
1P
b11 R
1S
b111 T
b1101111 U
b11111 V
b11101 W
b00001 X
b00000000000000000000000000111000 Y
b00000000000000000000000000010000 Z
b00000000000000000000000000010000 [
b11111111111111111111111111101110 ]
b00000000000000000000000000000000 ^
b00000000000000000000000000000000 _
b11111111111111111111111111101110 `
b11111111111111111111111111101110 a
1c
b00000000000000000000000000000000 (!
b00000000000000000000000000111000 )!
#24
b00000000000000000000000000111000 $
0c
b00000000000000000000000000111000 f
#25
b00000000000000000000000000010000 C
b00000000000000000000000000010100 D
b11111111111111111111111111111000 E
b11111111010000010000000100010011 F
b11111111111111111111111111110100 G
b11111111111111111111111111101000 H
0L
0P
b00 R
b000 T
b0010011 U
b00010 V
b10100 W
b00010 X
b00000000000000000000000000010100 Y
b00000000000000000000000000010100 Z
b00000000000000000000000000010100 [
b00000000000000000000000001101000 ]
b00000000000000000000000001110100 ^
b00000000000000000000000001101000 `
b11111111111111111111111111110100 a
1c
b00000000000000000000000001101000 (!
b00000000000000000000000001101000 )!
#26
b00000000000000000000000001101000 %
b00000000000000000000000001011100 ]
b00000000000000000000000001101000 ^
b00000000000000000000000001011100 `
0c
b00000000000000000000000001101000 g
b00000000000000000000000001011100 (!
b00000000000000000000000001011100 )!
#27
b00000000000000000000000000010100 C
b00000000000000000000000000011000 D
b00000000000000000000000000100100 E
b00000000000100010010010000100011 F
b00000000000000000000000000001000 G
b00000000000000000000000000010000 H
b0111 I
1M
0O
0S
b010 T
b0100011 U
b00001 W
b01000 X
b00000000000000000000000000011000 Y
b00000000000000000000000000011000 Z
b00000000000000000000000000011000 [
b00000000000000000000000001110000 ]
b00000000000000000000000000111000 _
b00000000000000000000000001100000 `
b00000000000000000000000000001000 a
1c
b00000000000000000000000001100000 (!
b00000000000000000000000001100000 )!
#28
0c
#29
b00000000000000000000000000011000 C
b00000000000000000000000000011100 D
b00000000000000000000000000100000 E
b00000000100000010010001000100011 F
b00000000000000000000000000000100 G
b00000000000000000000000000001000 H
b01000 W
b00100 X
b00000000000000000000000000011100 Y
b00000000000000000000000000011100 Z
b00000000000000000000000000011100 [
b00000000000000000000000001101100 ]
b00000000000000000000000000000000 _
b00000000000000000000000001100100 `
b00000000000000000000000000000100 a
1c
b00000000000000000000000001100100 (!
b00000000000000000000000001100100 )!
#30
0c
#31
b00000000000000000000000000011100 C
b00000000000000000000000000100000 D
b00000000000000000000000000011100 E
b00000000000000000000010100010011 F
b00000000000000000000000000000000 G
b00000000000000000000000000000000 H
b0010 I
0M
1O
b000 T
b0010011 U
b00000 V
b00000 W
b01010 X
b00000000000000000000000000100000 Y
b00000000000000000000000000100000 Z
b00000000000000000000000000100000 [
b00000000000000000000000000000000 ]
b00000000000000000000000000000000 ^
b00000000000000000000000000000000 `
b00000000000000000000000000000000 a
1c
b00000000000000000000000000000000 (!
b00000000000000000000000000000000 )!
#32
b00000000000000000000000000000000 -
0c
b00000000000000000000000000000000 o
#33
b00000000000000000000000000100000 C
b00000000000000000000000000100100 D
b00000000000000000000000001001100 E
b00000010000001100000011001100011 F
b00000000000000000000000000010110 G
b00000000000000000000000000101100 H
b1001 I
1J
0N
0O
b01 R
b1100011 U
b01100 V
b01100 X
b00000000000000000000000000100100 Y
b00000000000000000000000000100100 Z
b00000000000000000000000000100100 [
b00000000000000000000000000011000 ]
b00000000000000000000000000000011 ^
b00000000000000000000000000000011 `
1c
b00000000000000000000000000000011 (!
b00000000000000000000000000000011 )!
#34
0c
#35
b00000000000000000000000000100100 C
b00000000000000000000000000101000 D
b00000000000000000000000000100110 E
b00000000000101010000010100010011 F
b00000000000000000000000000000001 G
b00000000000000000000000000000010 H
b0010 I
0J
1N
1O
b00 R
b0010011 U
b01010 V
b00001 W
b01010 X
b00000000000000000000000000101000 Y
b00000000000000000000000000101000 Z
b00000000000000000000000000101000 [
b00000000000000000000000000000000 ]
b00000000000000000000000000000000 ^
b00000000000000000000000000111000 _
b00000000000000000000000000000001 `
b00000000000000000000000000000001 a
1c
b00000000000000000000000000000001 (!
b00000000000000000000000000000001 )!
#36
b00000000000000000000000000000001 -
b00000000000000000000000000000010 ]
b00000000000000000000000000000001 ^
b00000000000000000000000000000010 `
0c
b00000000000000000000000000000001 o
b00000000000000000000000000000010 (!
b00000000000000000000000000000010 )!
#37
b00000000000000000000000000101000 C
b00000000000000000000000000101100 D
b00000000000000000000000001001100 E
b00000010101001100000001001100011 F
b00000000000000000000000000010010 G
b00000000000000000000000000100100 H
b1001 I
1J
0N
0O
b01 R
b1100011 U
b01100 V
b01010 W
b00100 X
b00000000000000000000000000101100 Y
b00000000000000000000000000101100 Z
b00000000000000000000000000101100 [
b00000000000000000000000000010100 ]
b00000000000000000000000000000011 ^
b00000000000000000000000000000001 _
1c
#38
0c
#39
b00000000000000000000000000101100 C
b00000000000000000000000000110000 D
b00000000000000000000000000101010 E
b11111111111101100000011000010011 F
b11111111111111111111111111111111 G
b11111111111111111111111111111110 H
b0010 I
0J
1N
1O
b00 R
1S
b0010011 U
b11111 W
b01100 X
b00000000000000000000000000110000 Y
b00000000000000000000000000110000 Z
b00000000000000000000000000110000 [
b00000000000000000000000000000010 ]
b00000000000000000000000000000000 _
b11111111111111111111111111111111 a
1c
#40
b00000000000000000000000000000010 /
b00000000000000000000000000000000 ]
b00000000000000000000000000000010 ^
b00000000000000000000000000000001 `
0c
b00000000000000000000000000000010 q
b00000000000000000000000000000001 (!
b00000000000000000000000000000001 )!
#41
b00000000000000000000000000110000 C
b00000000000000000000000000110100 D
b00000000000000000000000000110000 E
b00000000110000010010000000100011 F
b00000000000000000000000000000000 G
b00000000000000000000000000000000 H
b0111 I
1M
0O
0S
b010 T
b0100011 U
b00010 V
b01100 W
b00000 X
b00000000000000000000000000110100 Y
b00000000000000000000000000110100 Z
b00000000000000000000000000110100 [
b00000000000000000000000001101000 ]
b00000000000000000000000001101000 ^
b00000000000000000000000000000010 _
b00000000000000000000000001101000 `
b00000000000000000000000000000000 a
1c
b00000000000000000000000001101000 (!
b00000000000000000000000001101000 )!
#42
0c
#43
b00000000000000000000000000110100 C
b00000000000000000000000000111000 D
b00000000000000000000000000010000 E
b11111101110111111111000011101111 F
b11111111111111111111111111101110 G
b11111111111111111111111111011100 H
b0010 I
1L
0M
1O
1P
b11 R
1S
b111 T
b1101111 U
b11111 V
b11101 W
b00001 X
b00000000000000000000000000111000 Y
b00000000000000000000000000010000 Z
b00000000000000000000000000010000 [
b11111111111111111111111111101110 ]
b00000000000000000000000000000000 ^
b00000000000000000000000000000000 _
b11111111111111111111111111101110 `
b11111111111111111111111111101110 a
1c
b00000000000000000000000000000000 (!
b00000000000000000000000000111000 )!
#44
0c
#45
b00000000000000000000000000010000 C
b00000000000000000000000000010100 D
b11111111111111111111111111111000 E
b11111111010000010000000100010011 F
b11111111111111111111111111110100 G
b11111111111111111111111111101000 H
0L
0P
b00 R
b000 T
b0010011 U
b00010 V
b10100 W
b00010 X
b00000000000000000000000000010100 Y
b00000000000000000000000000010100 Z
b00000000000000000000000000010100 [
b00000000000000000000000001011100 ]
b00000000000000000000000001101000 ^
b00000000000000000000000001011100 `
b11111111111111111111111111110100 a
1c
b00000000000000000000000001011100 (!
b00000000000000000000000001011100 )!
#46
b00000000000000000000000001011100 %
b00000000000000000000000001010000 ]
b00000000000000000000000001011100 ^
b00000000000000000000000001010000 `
0c
b00000000000000000000000001011100 g
b00000000000000000000000001010000 (!
b00000000000000000000000001010000 )!
#47
b00000000000000000000000000010100 C
b00000000000000000000000000011000 D
b00000000000000000000000000100100 E
b00000000000100010010010000100011 F
b00000000000000000000000000001000 G
b00000000000000000000000000010000 H
b0111 I
1M
0O
0S
b010 T
b0100011 U
b00001 W
b01000 X
b00000000000000000000000000011000 Y
b00000000000000000000000000011000 Z
b00000000000000000000000000011000 [
b00000000000000000000000001100100 ]
b00000000000000000000000000111000 _
b00000000000000000000000001010100 `
b00000000000000000000000000001000 a
1c
b00000000000000000000000001010100 (!
b00000000000000000000000001010100 )!
#48
0c
#49
b00000000000000000000000000011000 C
b00000000000000000000000000011100 D
b00000000000000000000000000100000 E
b00000000100000010010001000100011 F
b00000000000000000000000000000100 G
b00000000000000000000000000001000 H
b01000 W
b00100 X
b00000000000000000000000000011100 Y
b00000000000000000000000000011100 Z
b00000000000000000000000000011100 [
b00000000000000000000000001100000 ]
b00000000000000000000000000000000 _
b00000000000000000000000001011000 `
b00000000000000000000000000000100 a
1c
b00000000000000000000000001011000 (!
b00000000000000000000000001011000 )!
#50
0c
#51
b00000000000000000000000000011100 C
b00000000000000000000000000100000 D
b00000000000000000000000000011100 E
b00000000000000000000010100010011 F
b00000000000000000000000000000000 G
b00000000000000000000000000000000 H
b0010 I
0M
1O
b000 T
b0010011 U
b00000 V
b00000 W
b01010 X
b00000000000000000000000000100000 Y
b00000000000000000000000000100000 Z
b00000000000000000000000000100000 [
b00000000000000000000000000000000 ]
b00000000000000000000000000000000 ^
b00000000000000000000000000000000 `
b00000000000000000000000000000000 a
1c
b00000000000000000000000000000000 (!
b00000000000000000000000000000000 )!
#52
b00000000000000000000000000000000 -
0c
b00000000000000000000000000000000 o
#53
b00000000000000000000000000100000 C
b00000000000000000000000000100100 D
b00000000000000000000000001001100 E
b00000010000001100000011001100011 F
b00000000000000000000000000010110 G
b00000000000000000000000000101100 H
b1001 I
1J
0N
0O
b01 R
b1100011 U
b01100 V
b01100 X
b00000000000000000000000000100100 Y
b00000000000000000000000000100100 Z
b00000000000000000000000000100100 [
b00000000000000000000000000011000 ]
b00000000000000000000000000000010 ^
b00000000000000000000000000000010 `
1c
b00000000000000000000000000000010 (!
b00000000000000000000000000000010 )!
#54
0c
#55
b00000000000000000000000000100100 C
b00000000000000000000000000101000 D
b00000000000000000000000000100110 E
b00000000000101010000010100010011 F
b00000000000000000000000000000001 G
b00000000000000000000000000000010 H
b0010 I
0J
1N
1O
b00 R
b0010011 U
b01010 V
b00001 W
b01010 X
b00000000000000000000000000101000 Y
b00000000000000000000000000101000 Z
b00000000000000000000000000101000 [
b00000000000000000000000000000000 ]
b00000000000000000000000000000000 ^
b00000000000000000000000000111000 _
b00000000000000000000000000000001 `
b00000000000000000000000000000001 a
1c
b00000000000000000000000000000001 (!
b00000000000000000000000000000001 )!
#56
b00000000000000000000000000000001 -
b00000000000000000000000000000010 ]
b00000000000000000000000000000001 ^
b00000000000000000000000000000010 `
0c
b00000000000000000000000000000001 o
b00000000000000000000000000000010 (!
b00000000000000000000000000000010 )!
