CO-LAB4/CO-LAB4/waveform.vcd
$version Generated by VerilatedVcd $end
$timescale 1s $end

 $scope module TOP $end
  $var wire  1 V! clk $end
  $var wire 32 X! r[0] [31:0] $end
  $var wire 32 b! r[10] [31:0] $end
  $var wire 32 c! r[11] [31:0] $end
  $var wire 32 d! r[12] [31:0] $end
  $var wire 32 e! r[13] [31:0] $end
  $var wire 32 f! r[14] [31:0] $end
  $var wire 32 g! r[15] [31:0] $end
  $var wire 32 h! r[16] [31:0] $end
  $var wire 32 i! r[17] [31:0] $end
  $var wire 32 j! r[18] [31:0] $end
  $var wire 32 k! r[19] [31:0] $end
  $var wire 32 Y! r[1] [31:0] $end
  $var wire 32 l! r[20] [31:0] $end
  $var wire 32 m! r[21] [31:0] $end
  $var wire 32 n! r[22] [31:0] $end
  $var wire 32 o! r[23] [31:0] $end
  $var wire 32 p! r[24] [31:0] $end
  $var wire 32 q! r[25] [31:0] $end
  $var wire 32 r! r[26] [31:0] $end
  $var wire 32 s! r[27] [31:0] $end
  $var wire 32 t! r[28] [31:0] $end
  $var wire 32 u! r[29] [31:0] $end
  $var wire 32 Z! r[2] [31:0] $end
  $var wire 32 v! r[30] [31:0] $end
  $var wire 32 w! r[31] [31:0] $end
  $var wire 32 [! r[3] [31:0] $end
  $var wire 32 \! r[4] [31:0] $end
  $var wire 32 ]! r[5] [31:0] $end
  $var wire 32 ^! r[6] [31:0] $end
  $var wire 32 _! r[7] [31:0] $end
  $var wire 32 `! r[8] [31:0] $end
  $var wire 32 a! r[9] [31:0] $end
  $var wire  1 W! start $end
  $scope module PipelineCPU $end
   $var wire  2 c ALUOp [1:0] $end
   $var wire  1 [ ALUSrc $end
   $var wire  4 Y ALU_Control [3:0] $end
   $var wire 32 N ALU_in1 [31:0] $end
   $var wire 32 O ALU_in2 [31:0] $end
   $var wire 32 e ALU_result [31:0] $end
   $var wire  1 g ALU_zero $end
   $var wire  1 ` Branch $end
   $var wire 32 8 EX_MEM_ALU_result [31:0] $end
   $var wire 32 : EX_MEM_B_out [31:0] $end
   $var wire  1 = EX_MEM_MemRead $end
   $var wire  1 @ EX_MEM_MemToReg $end
   $var wire  1 > EX_MEM_MemWrite $end
   $var wire  1 ? EX_MEM_RegWrite $end
   $var wire  1 B EX_MEM_jalr $end
   $var wire  1 A EX_MEM_jump $end
   $var wire 32 9 EX_MEM_pc_4 [31:0] $end
   $var wire  5 < EX_MEM_rd [4:0] $end
   $var wire  2 7 ID_EX_ALUOp [1:0] $end
   $var wire  1 / ID_EX_ALUSrc $end
   $var wire  4 y! ID_EX_ALU_Control [3:0] $end
   $var wire  1 4 ID_EX_Branch $end
   $var wire  1 0 ID_EX_MemRead $end
   $var wire  1 3 ID_EX_MemToReg $end
   $var wire  1 1 ID_EX_MemWrite $end
   $var wire  1 2 ID_EX_RegWrite $end
   $var wire  1 R ID_EX_flush $end
   $var wire 32 ) ID_EX_imm [31:0] $end
   $var wire 32 + ID_EX_imm_shifted [31:0] $end
   $var wire  3 Z ID_EX_inst1412 [2:0] $end
   $var wire  1 d ID_EX_inst30 $end
   $var wire  1 j ID_EX_j $end
   $var wire  1 6 ID_EX_jalr $end
   $var wire  1 5 ID_EX_jump $end
   $var wire 32 * ID_EX_pc_4 [31:0] $end
   $var wire 32 & ID_EX_pc_out [31:0] $end
   $var wire  5 . ID_EX_rd [4:0] $end
   $var wire 32 ' ID_EX_readdata1 [31:0] $end
   $var wire 32 ( ID_EX_readdata2 [31:0] $end
   $var wire  5 , ID_EX_rs1 [4:0] $end
   $var wire  5 - ID_EX_rs2 [4:0] $end
   $var wire  1 Q IF_ID_flush $end
   $var wire 32 $ IF_ID_inst [31:0] $end
   $var wire 32 % IF_ID_pc_4 [31:0] $end
   $var wire 32 # IF_ID_pc_out [31:0] $end
   $var wire  1 P IF_ID_write $end
   $var wire  1 b Jalr $end
   $var wire  1 a Jump $end
   $var wire 32 C MEM_WB_ALU_result [31:0] $end
   $var wire  1 I MEM_WB_MemToReg $end
   $var wire  1 H MEM_WB_RegWrite $end
   $var wire  1 k MEM_WB_j $end
   $var wire  1 K MEM_WB_jalr $end
   $var wire  1 J MEM_WB_jump $end
   $var wire 32 D MEM_WB_mem_data [31:0] $end
   $var wire 32 E MEM_WB_pc_4 [31:0] $end
   $var wire  5 G MEM_WB_rd [4:0] $end
   $var wire  1 \ MemRead $end
   $var wire  1 _ MemToReg $end
   $var wire  1 ] MemWrite $end
   $var wire 32 ; Mux_B_out [31:0] $end
   $var wire  1 P PC_write $end
   $var wire  1 ^ RegWrite $end
   $var wire  1 i branch_zero $end
   $var wire  1 V! clk $end
   $var wire  2 L forwardA [1:0] $end
   $var wire  2 M forwardB [1:0] $end
   $var wire 32 X imm [31:0] $end
   $var wire 32 W inst [31:0] $end
   $var wire  1 Q jump_branch $end
   $var wire 32 x! mem_data [31:0] $end
   $var wire 32 V mux_mux_pc_out [31:0] $end
   $var wire 32 U mux_pc_out [31:0] $end
   $var wire 32 f pc_branch [31:0] $end
   $var wire 32 S pc_out [31:0] $end
   $var wire 32 T pc_plus_4 [31:0] $end
   $var wire 32 X! r[0] [31:0] $end
   $var wire 32 b! r[10] [31:0] $end
   $var wire 32 c! r[11] [31:0] $end
   $var wire 32 d! r[12] [31:0] $end
   $var wire 32 e! r[13] [31:0] $end
   $var wire 32 f! r[14] [31:0] $end
   $var wire 32 g! r[15] [31:0] $end
   $var wire 32 h! r[16] [31:0] $end
   $var wire 32 i! r[17] [31:0] $end
   $var wire 32 j! r[18] [31:0] $end
   $var wire 32 k! r[19] [31:0] $end
   $var wire 32 Y! r[1] [31:0] $end
   $var wire 32 l! r[20] [31:0] $end
   $var wire 32 m! r[21] [31:0] $end
   $var wire 32 n! r[22] [31:0] $end
   $var wire 32 o! r[23] [31:0] $end
   $var wire 32 p! r[24] [31:0] $end
   $var wire 32 q! r[25] [31:0] $end
   $var wire 32 r! r[26] [31:0] $end
   $var wire 32 s! r[27] [31:0] $end
   $var wire 32 t! r[28] [31:0] $end
   $var wire 32 u! r[29] [31:0] $end
   $var wire 32 Z! r[2] [31:0] $end
   $var wire 32 v! r[30] [31:0] $end
   $var wire 32 w! r[31] [31:0] $end
   $var wire 32 [! r[3] [31:0] $end
   $var wire 32 \! r[4] [31:0] $end
   $var wire 32 ]! r[5] [31:0] $end
   $var wire 32 ^! r[6] [31:0] $end
   $var wire 32 _! r[7] [31:0] $end
   $var wire 32 `! r[8] [31:0] $end
   $var wire 32 a! r[9] [31:0] $end
   $var wire 32 *! readdata1 [31:0] $end
   $var wire 32 +! readdata2 [31:0] $end
   $var wire  1 W! start $end
   $var wire 32 h write_data [31:0] $end
   $var wire 32 F write_mux_data [31:0] $end
   $scope module EX_MEM $end
    $var wire  1 V! clk $end
    $var wire 107 l data_i [106:0] $end
    $var wire 107 p data_o [106:0] $end
    $var wire  1 W! rst $end
    $var wire 32 z! size [31:0] $end
   $upscope $end
   $scope module IDEXreg $end
    $var wire  1 V! clk $end
    $var wire 189 ,! data_i [188:0] $end
    $var wire 189 t data_o [188:0] $end
    $var wire  1 R flush $end
    $var wire 32 {! size [31:0] $end
   $upscope $end
   $scope module IFIDreg $end
    $var wire  1 V! clk $end
    $var wire 96 z data_i [95:0] $end
    $var wire 96 } data_o [95:0] $end
    $var wire  1 Q flush $end
    $var wire 32 |! size [31:0] $end
    $var wire  1 P write $end
   $upscope $end
   $scope module MEM_WB $end
    $var wire  1 V! clk $end
    $var wire 105 2! data_i [104:0] $end
    $var wire 105 "! data_o [104:0] $end
    $var wire  1 W! rst $end
    $var wire 32 }! size [31:0] $end
   $upscope $end
   $scope module m_ALU $end
    $var wire 32 N A [31:0] $end
    $var wire 32 e ALUOut [31:0] $end
    $var wire  4 Y ALUctl [3:0] $end
    $var wire 32 O B [31:0] $end
    $var wire  1 g zero $end
   $upscope $end
   $scope module m_ALUCtrl $end
    $var wire  4 Y ALUCtl [3:0] $end
    $var wire  2 7 ALUOp [1:0] $end
    $var wire  3 Z funct3 [2:0] $end
    $var wire  1 d funct7 $end
   $upscope $end
   $scope module m_Adder_1 $end
    $var wire 32 S a [31:0] $end
    $var wire 32 ~! b [31:0] $end
    $var wire 32 T sum [31:0] $end
   $upscope $end
   $scope module m_Adder_2 $end
    $var wire 32 & a [31:0] $end
    $var wire 32 + b [31:0] $end
    $var wire 32 f sum [31:0] $end
   $upscope $end
   $scope module m_Control $end
    $var wire  2 c ALUOp [1:0] $end
    $var wire  1 [ ALUSrc $end
    $var wire  1 ` branch $end
    $var wire 10 '! contrller [9:0] $end
    $var wire  1 b jalr $end
    $var wire  1 a jump $end
    $var wire  1 \ memRead $end
    $var wire  1 ] memWrite $end
    $var wire  1 _ memtoReg $end
    $var wire  7 &! opcode [6:0] $end
    $var wire  1 ^ regWrite $end
   $upscope $end
   $scope module m_DataMemory $end
    $var wire 32 8 address [31:0] $end
    $var wire  1 V! clk $end
    $var wire  1 = memRead $end
    $var wire  1 > memWrite $end
    $var wire 32 x! readData [31:0] $end
    $var wire  1 W! rst $end
    $var wire 32 : writeData [31:0] $end
   $upscope $end
   $scope module m_ForwardA $end
    $var wire 32 N out [31:0] $end
    $var wire 32 ' s0 [31:0] $end
    $var wire 32 h s1 [31:0] $end
    $var wire 32 8 s2 [31:0] $end
    $var wire  2 L sel [1:0] $end
    $var wire 32 !" size [31:0] $end
   $upscope $end
   $scope module m_ForwardB $end
    $var wire 32 ; out [31:0] $end
    $var wire 32 ( s0 [31:0] $end
    $var wire 32 h s1 [31:0] $end
    $var wire 32 8 s2 [31:0] $end
    $var wire  2 M sel [1:0] $end
    $var wire 32 !" size [31:0] $end
   $upscope $end
   $scope module m_ForwardingUnit $end
    $var wire  1 ? EX_MEM_RegWrite $end
    $var wire  5 < EX_MEM_RegisterRd [4:0] $end
    $var wire  5 , ID_EX_RegisterRs [4:0] $end
    $var wire  5 - ID_EX_RegisterRt [4:0] $end
    $var wire  1 H MEM_WB_RegWrite $end
    $var wire  5 G MEM_WB_RegisterRd [4:0] $end
    $var wire  2 L forwardA [1:0] $end
    $var wire  2 M forwardB [1:0] $end
   $upscope $end
   $scope module m_HazardDetectionUnit $end
    $var wire  1 0 ID_EX_MemRead $end
    $var wire  5 . ID_EX_RegisterRt [4:0] $end
    $var wire  1 R ID_EX_flush $end
    $var wire  5 (! IF_ID_RegisterRs [4:0] $end
    $var wire  5 )! IF_ID_RegisterRt [4:0] $end
    $var wire  1 Q IF_ID_flush $end
    $var wire  1 P IF_ID_write $end
    $var wire  1 Q jump_and_branch $end
    $var wire  1 P pc_write $end
    $var wire  1 P stall $end
   $upscope $end
   $scope module m_ImmGen $end
    $var wire 32 X imm [31:0] $end
    $var wire 32 $ inst [31:0] $end
    $var wire  7 &! opcode [6:0] $end
   $upscope $end
   $scope module m_InstMem $end
    $var wire 32 W inst [31:0] $end
    $var wire 32 S readAddr [31:0] $end
   $upscope $end
   $scope module m_Mux_Mux_ForwardB $end
    $var wire 32 O out [31:0] $end
    $var wire 32 ; s0 [31:0] $end
    $var wire 32 ) s1 [31:0] $end
    $var wire  1 / sel $end
    $var wire 32 !" size [31:0] $end
   $upscope $end
   $scope module m_Mux_Mux_WriteData $end
    $var wire 32 h out [31:0] $end
    $var wire 32 F s0 [31:0] $end
    $var wire 32 E s1 [31:0] $end
    $var wire  1 k sel $end
    $var wire 32 !" size [31:0] $end
   $upscope $end
   $scope module m_Mux_PC_1 $end
    $var wire 32 U out [31:0] $end
    $var wire 32 T s0 [31:0] $end
    $var wire 32 f s1 [31:0] $end
    $var wire  1 Q sel $end
    $var wire 32 !" size [31:0] $end
   $upscope $end
   $scope module m_Mux_PC_2 $end
    $var wire 32 V out [31:0] $end
    $var wire 32 U s0 [31:0] $end
    $var wire 32 e s1 [31:0] $end
    $var wire  1 6 sel $end
    $var wire 32 !" size [31:0] $end
   $upscope $end
   $scope module m_Mux_WriteData $end
    $var wire 32 F out [31:0] $end
    $var wire 32 C s0 [31:0] $end
    $var wire 32 D s1 [31:0] $end
    $var wire  1 I sel $end
    $var wire 32 !" size [31:0] $end
   $upscope $end
   $scope module m_PC $end
    $var wire  1 V! clk $end
    $var wire 32 V pc_i [31:0] $end
    $var wire 32 S pc_o [31:0] $end
    $var wire  1 P pc_write $end
    $var wire  1 W! rst $end
   $upscope $end
   $scope module m_Register $end
    $var wire  1 V! clk $end
    $var wire 32 *! readData1 [31:0] $end
    $var wire 32 +! readData2 [31:0] $end
    $var wire  5 (! readReg1 [4:0] $end
    $var wire  5 )! readReg2 [4:0] $end
    $var wire  1 H regWrite $end
    $var wire 32 6! regs[0] [31:0] $end
    $var wire 32 @! regs[10] [31:0] $end
    $var wire 32 A! regs[11] [31:0] $end
    $var wire 32 B! regs[12] [31:0] $end
    $var wire 32 C! regs[13] [31:0] $end
    $var wire 32 D! regs[14] [31:0] $end
    $var wire 32 E! regs[15] [31:0] $end
    $var wire 32 F! regs[16] [31:0] $end
    $var wire 32 G! regs[17] [31:0] $end
    $var wire 32 H! regs[18] [31:0] $end
    $var wire 32 I! regs[19] [31:0] $end
    $var wire 32 7! regs[1] [31:0] $end
    $var wire 32 J! regs[20] [31:0] $end
    $var wire 32 K! regs[21] [31:0] $end
    $var wire 32 L! regs[22] [31:0] $end
    $var wire 32 M! regs[23] [31:0] $end
    $var wire 32 N! regs[24] [31:0] $end
    $var wire 32 O! regs[25] [31:0] $end
    $var wire 32 P! regs[26] [31:0] $end
    $var wire 32 Q! regs[27] [31:0] $end
    $var wire 32 R! regs[28] [31:0] $end
    $var wire 32 S! regs[29] [31:0] $end
    $var wire 32 8! regs[2] [31:0] $end
    $var wire 32 T! regs[30] [31:0] $end
    $var wire 32 U! regs[31] [31:0] $end
    $var wire 32 9! regs[3] [31:0] $end
    $var wire 32 :! regs[4] [31:0] $end
    $var wire 32 ;! regs[5] [31:0] $end
    $var wire 32 <! regs[6] [31:0] $end
    $var wire 32 =! regs[7] [31:0] $end
    $var wire 32 >! regs[8] [31:0] $end
    $var wire 32 ?! regs[9] [31:0] $end
    $var wire  1 W! rst $end
    $var wire 32 h writeData [31:0] $end
    $var wire  5 G writeReg [4:0] $end
   $upscope $end
   $scope module m_ShiftLeftOne $end
    $var wire 32 ) i [31:0] $end
    $var wire 32 + o [31:0] $end
   $upscope $end
  $upscope $end
 $upscope $end
$enddefinitions $end


#0
b00000000000000000000000000000000 #
b00000000000000000000000000000000 $
b00000000000000000000000000000000 %
b00000000000000000000000000000000 &
b00000000000000000000000000000000 '
b00000000000000000000000000000000 (
b00000000000000000000000000000000 )
b00000000000000000000000000000000 *
b00000000000000000000000000000000 +
b00000 ,
b00000 -
b00000 .
0/
00
01
02
03
04
05
06
b00 7
b00000000000000000000000000000000 8
b00000000000000000000000000000000 9
b00000000000000000000000000000000 :
b00000000000000000000000000000000 ;
b00000 <
0=
0>
0?
0@
0A
0B
b00000000000000000000000000000000 C
b00000000000000000000000000000000 D
b00000000000000000000000000000000 E
b00000000000000000000000000000000 F
b00000 G
0H
0I
0J
0K
b00 L
b00 M
b00000000000000000000000000000000 N
b00000000000000000000000000000000 O
0P
0Q
0R
b00000000000000000000000000000000 S
b00000000000000000000000000000100 T
b00000000000000000000000000000100 U
b00000000000000000000000000000100 V
b00000000010000000000011000010011 W
b00000000000000000000000000000000 X
b0010 Y
b000 Z
0[
0\
0]
0^
0_
0`
0a
0b
b00 c
0d
b00000000000000000000000000000000 e
b00000000000000000000000000000000 f
1g
b00000000000000000000000000000000 h
0i
0j
0k
b00000000000000000000000000000000000000000000000000000000000000000000000000000000000000000000000000000000000 l
b00000000000000000000000000000000000000000000000000000000000000000000000000000000000000000000000000000000000 p
b000000000000000000000000000000000000000000000000000000000000000000000000000000000000000000000000000000000000000000000000000000000000000000000000000000000000000000000000000000000000000000000 t
b000000000000000000000000000001000000000000000000000000000000000000000000010000000000011000010011 z
b000000000000000000000000000000000000000000000000000000000000000000000000000000000000000000000000 }
b000000000000000000000000000000000000000000000000000000000000000000000000000000000000000000000000000000000 "!
b0000000 &!
b0000000000 '!
b00000 (!
b00000 )!
b00000000000000000000000000000000 *!
b00000000000000000000000000000000 +!
b000000000000000000000000000000000000000000000000000000000000000000000000000000000000000000000000000000000000000000000000000000000000000000000000000000000000000000000000000000000000000000000 ,!
b000000000000000000000000000000000000000000000000000000000000000000000000000000000000000000000000000000000 2!
b00000000000000000000000000000000 6!
b00000000000000000000000000000000 7!
b00000000000000000000000000000000 8!
b00000000000000000000000000000000 9!
b00000000000000000000000000000000 :!
b00000000000000000000000000000000 ;!
b00000000000000000000000000000000 <!
b00000000000000000000000000000000 =!
b00000000000000000000000000000000 >!
b00000000000000000000000000000000 ?!
b00000000000000000000000000000000 @!
b00000000000000000000000000000000 A!
b00000000000000000000000000000000 B!
b00000000000000000000000000000000 C!
b00000000000000000000000000000000 D!
b00000000000000000000000000000000 E!
b00000000000000000000000000000000 F!
b00000000000000000000000000000000 G!
b00000000000000000000000000000000 H!
b00000000000000000000000000000000 I!
b00000000000000000000000000000000 J!
b00000000000000000000000000000000 K!
b00000000000000000000000000000000 L!
b00000000000000000000000000000000 M!
b00000000000000000000000000000000 N!
b00000000000000000000000000000000 O!
b00000000000000000000000000000000 P!
b00000000000000000000000000000000 Q!
b00000000000000000000000000000000 R!
b00000000000000000000000000000000 S!
b00000000000000000000000000000000 T!
b00000000000000000000000000000000 U!
0V!
1W!
b00000000000000000000000000000000 X!
b00000000000000000000000000000000 Y!
b00000000000000000000000000000000 Z!
b00000000000000000000000000000000 [!
b00000000000000000000000000000000 \!
b00000000000000000000000000000000 ]!
b00000000000000000000000000000000 ^!
b00000000000000000000000000000000 _!
b00000000000000000000000000000000 `!
b00000000000000000000000000000000 a!
b00000000000000000000000000000000 b!
b00000000000000000000000000000000 c!
b00000000000000000000000000000000 d!
b00000000000000000000000000000000 e!
b00000000000000000000000000000000 f!
b00000000000000000000000000000000 g!
b00000000000000000000000000000000 h!
b00000000000000000000000000000000 i!
b00000000000000000000000000000000 j!
b00000000000000000000000000000000 k!
b00000000000000000000000000000000 l!
b00000000000000000000000000000000 m!
b00000000000000000000000000000000 n!
b00000000000000000000000000000000 o!
b00000000000000000000000000000000 p!
b00000000000000000000000000000000 q!
b00000000000000000000000000000000 r!
b00000000000000000000000000000000 s!
b00000000000000000000000000000000 t!
b00000000000000000000000000000000 u!
b00000000000000000000000000000000 v!
b00000000000000000000000000000000 w!
b00000000000000000000000000000000 x!
b0000 y!
b00000000000000000000000001101011 z!
b00000000000000000000000010111101 {!
b00000000000000000000000001100000 |!
b00000000000000000000000001101001 }!
b00000000000000000000000000000100 ~!
b00000000000000000000000000100000 !"
#1
b00000000010000000000011000010011 $
b00000000000000000000000000000100 %
b00000000000000000000000000000100 S
b00000000000000000000000000001000 T
b00000000000000000000000000001000 U
b00000000000000000000000000001000 V
b00000000110000000000000011101111 W
b00000000000000000000000000000100 X
1[
1^
b11 c
b000000000000000000000000000010000000000000000000000000000000010000000000110000000000000011101111 z
b000000000000000000000000000001000000000000000000000000000000000000000000010000000000011000010011 }
b0010011 &!
b0001011001 '!
b00100 )!
b000000000000000000000000000001000000000000000000000000000000000000000000000000000000000000000000000000000000000000000000000000000000000000000000000000000000010000000001000110000001110010000 ,!
b00000000000000000000000010000000 8!
1V!
0W!
b00000000000000000000000010000000 Z!
#2
0V!
1W!
#3
b00000000000000000000000000000100 #
b00000000110000000000000011101111 $
b00000000000000000000000000001000 %
b00000000000000000000000000000100 )
b00000000000000000000000000000100 *
b00000000000000000000000000001000 +
b00100 -
b01100 .
1/
12
b11 7
b00000000000000000000000000000100 O
b00000000000000000000000000001000 S
b00000000000000000000000000001100 T
b00000000000000000000000000001100 U
b00000000000000000000000000001100 V
b00000000010000000000000011101111 W
b00000000000000000000000000000110 X
1a
b00 c
b00000000000000000000000000000100 e
b00000000000000000000000000001000 f
0g
b00000000000000000000000000000100000000000000000000000000000001000000000000000000000000000000000001100001000 l
b000000000000000000000000000001000000000000000000000000000000000000000000000000000000000000000000000000000000000000000000000000000000000000000000000000000000010000000001000110000001110010000 t
b000000000000000000000000000011000000000000000000000000000000100000000000010000000000000011101111 z
b000000000000000000000000000010000000000000000000000000000000010000000000110000000000000011101111 }
b1101111 &!
b0001000011 '!
b01100 )!
b000000000000000000000000000010000000000000000000000000000000010000000000000000000000000000000000000000000000000000000000000000000000000000000000000000000000011000000011000000100000010010010 ,!
1V!
#4
0V!
#5
b00000000000000000000000000001000 #
b00000000010000000000000011101111 $
b00000000000000000000000000001100 %
b00000000000000000000000000000100 &
b00000000000000000000000000000110 )
b00000000000000000000000000001000 *
b00000000000000000000000000001100 +
b01100 -
b00001 .
15
b00 7
b00000000000000000000000000000100 8
b00000000000000000000000000000100 9
b00000000000000000000000000000100 ;
b01100 <
1?
b10 M
b00000000000000000000000000000110 O
1Q
1R
b00000000000000000000000000001100 S
b00000000000000000000000000010000 T
b00000000000000000000000000010000 U
b00000000000000000000000000010000 V
b00000000000000000000000001101111 W
b00000000000000000000000000000010 X
b00000000000000000000000000000110 e
b00000000000000000000000000010000 f
1j
b00000000000000000000000000000110000000000000000000000000000010000000000000000000000000000000010000001001010 l
b00000000000000000000000000000100000000000000000000000000000001000000000000000000000000000000000001100001000 p
b000000000000000000000000000010000000000000000000000000000000010000000000000000000000000000000000000000000000000000000000000000000000000000000000000000000000011000000011000000100000010010010 t
b000000000000000000000000000100000000000000000000000000000000110000000000000000000000000001101111 z
b000000000000000000000000000011000000000000000000000000000000100000000000010000000000000011101111 }
b00100 )!
b000000000000000000000000000011000000000000000000000000000000100000000000000000000000000000000000000000000000000000000000000000000000000000000000000000000000001000000001000000100000010010010 ,!
b000000000000000000000000000001000000000000000000000000000000010000000000000000000000000000000000011001000 2!
1V!
#6
0V!
#7
b00000000000000000000000000000000 #
b00000000000000000000000000000000 $
b00000000000000000000000000000000 %
b00000000000000000000000000000000 &
b00000000000000000000000000000000 )
b00000000000000000000000000000000 *
b00000000000000000000000000000000 +
b00000 -
b00000 .
0/
02
05
b00000000000000000000000000000110 8
b00000000000000000000000000001000 9
b00000000000000000000000000000100 :
b00000000000000000000000000000000 ;
b00001 <
1A
b00000000000000000000000000000100 C
b00000000000000000000000000000100 E
b00000000000000000000000000000100 F
b01100 G
1H
b00 M
b00000000000000000000000000000000 O
0Q
0R
b00000000000000000000000000010000 S
b00000000000000000000000000010100 T
b00000000000000000000000000010100 U
b00000000000000000000000000010100 V
b11111111010000010000000100010011 W
b00000000000000000000000000000000 X
0[
0^
0a
b00000000000000000000000000000000 e
b00000000000000000000000000000000 f
1g
b00000000000000000000000000000100 h
0j
b00000000000000000000000000000000000000000000000000000000000000000000000000000000000000000000000000000000000 l
b00000000000000000000000000000110000000000000000000000000000010000000000000000000000000000000010000001001010 p
b000000000000000000000000000000000000000000000000000000000000000000000000000000000000000000000000000000000000000000000000000000000000000000000000000000000000000000000000000000000000000000000 t
b000000000000000000000000000101000000000000000000000000000001000011111111010000010000000100010011 z
b000000000000000000000000000000000000000000000000000000000000000000000000000000000000000000000000 }
b000000000000000000000000000001000000000000000000000000000000010000000000000000000000000000000000011001000 "!
b0000000 &!
b0000000000 '!
b00000 )!
b000000000000000000000000000000000000000000000000000000000000000000000000000000000000000000000000000000000000000000000000000000000000000000000000000000000000000000000000000000000000000000000 ,!
b000000000000000000000000000010000000000000000000000000000000011000000000000000000000000000000000000011010 2!
1V!
#8
b00000000000000000000000000000100 B!
0V!
b00000000000000000000000000000100 d!
#9
b00000000000000000000000000010000 #
b11111111010000010000000100010011 $
b00000000000000000000000000010100 %
b00000000000000000000000000000000 8
b00000000000000000000000000000000 9
b00000000000000000000000000000000 :
b00000 <
0?
0A
b00000000000000000000000000000110 C
b00000000000000000000000000001000 E
b00000000000000000000000000000110 F
b00001 G
1J
b00000000000000000000000000010100 S
b00000000000000000000000000011000 T
b00000000000000000000000000011000 U
b00000000000000000000000000011000 V
b00000000000100010010010000100011 W
b11111111111111111111111111110100 X
1[
1^
b11 c
b00000000000000000000000000001000 h
1k
b00000000000000000000000000000000000000000000000000000000000000000000000000000000000000000000000000000000000 p
b000000000000000000000000000110000000000000000000000000000001010000000000000100010010010000100011 z
b000000000000000000000000000101000000000000000000000000000001000011111111010000010000000100010011 }
b000000000000000000000000000010000000000000000000000000000000011000000000000000000000000000000000000011010 "!
b0010011 &!
b0001011001 '!
b00010 (!
b10100 )!
b00000000000000000000000010000000 *!
b000000000000000000000000000101000000000000000000000000000001000000000000000000000000000010000000000000000000000000000000000000001111111111111111111111111111010000010101000001000011110010000 ,!
b000000000000000000000000000000000000000000000000000000000000000000000000000000000000000000000000000000000 2!
1V!
#10
b00000000000000000000000000001000 7!
0V!
b00000000000000000000000000001000 Y!
#11
b00000000000000000000000000010100 #
b00000000000100010010010000100011 $
b00000000000000000000000000011000 %
b00000000000000000000000000010000 &
b00000000000000000000000010000000 '
b11111111111111111111111111110100 )
b00000000000000000000000000010100 *
b11111111111111111111111111101000 +
b00010 ,
b10100 -
b00010 .
1/
12
b11 7
b00000000000000000000000000000000 C
b00000000000000000000000000000000 E
b00000000000000000000000000000000 F
b00000 G
0H
0J
b00000000000000000000000010000000 N
b11111111111111111111111111110100 O
b00000000000000000000000000011000 S
b00000000000000000000000000011100 T
b00000000000000000000000000011100 U
b00000000000000000000000000011100 V
b00000000100000010010001000100011 W
b00000000000000000000000000001000 X
1]
0^
b00 c
1d
b00000000000000000000000001110100 e
b11111111111111111111111111111000 f
0g
b00000000000000000000000000000000 h
0k
b00000000000000000000000001110100000000000000000000000000000101000000000000000000000000000000000000010001000 l
b000000000000000000000000000101000000000000000000000000000001000000000000000000000000000010000000000000000000000000000000000000001111111111111111111111111111010000010101000001000011110010000 t
b000000000000000000000000000111000000000000000000000000000001100000000000100000010010001000100011 z
b000000000000000000000000000110000000000000000000000000000001010000000000000100010010010000100011 }
b000000000000000000000000000000000000000000000000000000000000000000000000000000000000000000000000000000000 "!
b0100011 &!
b0100000001 '!
b00001 )!
b00000000000000000000000000001000 +!
b000000000000000000000000000110000000000000000000000000000001010000000000000000000000000010000000000000000000000000000000000010000000000000000000000000000000100000010000010100001000010100000 ,!
1V!
#12
0V!
#13
b00000000000000000000000000011000 #
b00000000100000010010001000100011 $
b00000000000000000000000000011100 %
b00000000000000000000000000010100 &
b00000000000000000000000000001000 (
b00000000000000000000000000001000 )
b00000000000000000000000000011000 *
b00000000000000000000000000010000 +
b00001 -
b01000 .
11
02
b00 7
b00000000000000000000000001110100 8
b00000000000000000000000000010100 9
b00000000000000000000000000001000 ;
b00010 <
1?
b10 L
b00000000000000000000000001110100 N
b00000000000000000000000000001000 O
b00000000000000000000000000011100 S
b00000000000000000000000000100000 T
b00000000000000000000000000100000 U
b00000000000000000000000000100000 V
b00000000000000000000010100010011 W
b00000000000000000000000000000100 X
b010 Z
0d
b00000000000000000000000001111100 e
b00000000000000000000000000100100 f
b00000000000000000000000001111100000000000000000000000000000110000000000000000000000000000000100001000010000 l
b00000000000000000000000001110100000000000000000000000000000101000000000000000000000000000000000000010001000 p
b000000000000000000000000000110000000000000000000000000000001010000000000000000000000000010000000000000000000000000000000000010000000000000000000000000000000100000010000010100001000010100000 t
b000000000000000000000000001000000000000000000000000000000001110000000000000000000000010100010011 z
b000000000000000000000000000111000000000000000000000000000001100000000000100000010010001000100011 }
b01000 )!
b00000000000000000000000000000000 +!
b000000000000000000000000000111000000000000000000000000000001100000000000000000000000000010000000000000000000000000000000000000000000000000000000000000000000010000010010000010001000010100000 ,!
b000000000000000000000000000101000000000000000000000000000111010000000000000000000000000000000000000101000 2!
1V!
#14
0V!
#15
b00000000000000000000000000011100 #
b00000000000000000000010100010011 $
b00000000000000000000000000100000 %
b00000000000000000000000000011000 &
b00000000000000000000000000000000 (
b00000000000000000000000000000100 )
b00000000000000000000000000011100 *
b00000000000000000000000000001000 +
b01000 -
b00100 .
b00000000000000000000000001111100 8
b00000000000000000000000000011000 9
b00000000000000000000000000001000 :
b00000000000000000000000000000000 ;
b01000 <
1>
0?
b00000000000000000000000001110100 C
b00000000000000000000000000010100 E
b00000000000000000000000001110100 F
b00010 G
1H
b01 L
b00000000000000000000000000000100 O
b00000000000000000000000000100000 S
b00000000000000000000000000100100 T
b00000000000000000000000000100100 U
b00000000000000000000000000100100 V
b00000010000001100000011001100011 W
b00000000000000000000000000000000 X
0]
1^
b11 c
b00000000000000000000000001111000 e
b00000000000000000000000000100000 f
b00000000000000000000000001110100 h
b00000000000000000000000001111000000000000000000000000000000111000000000000000000000000000000000000100010000 l
b00000000000000000000000001111100000000000000000000000000000110000000000000000000000000000000100001000010000 p
b000000000000000000000000000111000000000000000000000000000001100000000000000000000000000010000000000000000000000000000000000000000000000000000000000000000000010000010010000010001000010100000 t
b000000000000000000000000001001000000000000000000000000000010000000000010000001100000011001100011 z
b000000000000000000000000001000000000000000000000000000000001110000000000000000000000010100010011 }
b000000000000000000000000000101000000000000000000000000000111010000000000000000000000000000000000000101000 "!
b0010011 &!
b0001011001 '!
b00000 (!
b00000 )!
b00000000000000000000000000000000 *!
b000000000000000000000000001000000000000000000000000000000001110000000000000000000000000000000000000000000000000000000000000000000000000000000000000000000000000000000000000101000001110010000 ,!
b000000000000000000000000000110000000000000000000000000000111110000000000000000000000000000000000010000000 2!
1V!
#16
b00000000000000000000000001110100 8!
0V!
b00000000000000000000000001110100 Z!
